<svg xmlns="http://www.w3.org/2000/svg" width="32.076" height="32.075" viewBox="0 0 32.076 32.075">
  <path id="_006-linkedin" data-name="006-linkedin" d="M29.174,0H2.9A2.9,2.9,0,0,0,0,2.9V29.174a2.9,2.9,0,0,0,2.9,2.9H29.174a2.9,2.9,0,0,0,2.9-2.9V2.9A2.9,2.9,0,0,0,29.174,0ZM9.926,27.7a.844.844,0,0,1-.844.844H5.487a.844.844,0,0,1-.844-.844V12.629a.844.844,0,0,1,.844-.844H9.081a.844.844,0,0,1,.844.844ZM7.284,10.364A3.415,3.415,0,1,1,10.7,6.95,3.415,3.415,0,0,1,7.284,10.364Zm21.425,17.4a.776.776,0,0,1-.776.776H24.076a.776.776,0,0,1-.776-.776V20.7c0-1.054.309-4.62-2.755-4.62-2.377,0-2.859,2.441-2.956,3.536v8.151a.776.776,0,0,1-.776.776h-3.73a.776.776,0,0,1-.776-.776v-15.2a.776.776,0,0,1,.776-.776h3.73a.776.776,0,0,1,.776.776v1.315c.881-1.323,2.191-2.344,4.98-2.344,6.176,0,6.141,5.77,6.141,8.94v7.292Z" fill="#0e76a8"/>
</svg>
