<svg id="HU_logo" data-name="HU logo" xmlns="http://www.w3.org/2000/svg" width="115.333" height="38.299" viewBox="0 0 115.333 38.299">
  <g id="Layer_1" data-name="Layer 1" transform="translate(0 0)">
    <g id="Group_5" data-name="Group 5">
      <g id="Group_3" data-name="Group 3">
        <path id="Path_1" data-name="Path 1" d="M35.208,17.055a.992.992,0,0,0,0-.119A17.6,17.6,0,1,0,0,16.934v.577a.916.916,0,0,1,0,.114A17.606,17.606,0,0,0,12.171,34.054a2.236,2.236,0,0,0,.475-.873v-.038c.038-.171.081-.356.123-.574l.033-.109c.218-.911.475-1.756.475-1.771.066-.228.119-.408.166-.527a3.508,3.508,0,0,1,.342-.57.907.907,0,0,1,.745-.356,1.154,1.154,0,0,1,.389.066l.242.1v-.261a2.312,2.312,0,0,0-.028-.261,11.72,11.72,0,0,1-2.943-1.04v-.057A11.791,11.791,0,0,1,14,6.028V5.98a11.867,11.867,0,0,1,9.019.741v.047a11.8,11.8,0,0,1-1.809,21.76v.052a12.081,12.081,0,0,1-3.6.555,11.513,11.513,0,0,1-1.868-.152,13.321,13.321,0,0,0-.767,5.037,5.4,5.4,0,0,1-.033.688A17.621,17.621,0,0,0,35.208,17.62a.575.575,0,0,0,0-.09v-.285C35.213,17.212,35.208,17.122,35.208,17.055Z" transform="translate(0 0.67)" fill="#cba5cd"/>
        <path id="Path_2" data-name="Path 2" d="M18.152,1a17.137,17.137,0,0,0-5.136,33.48,2.454,2.454,0,0,0,.176-.422V34.02c.038-.171.081-.356.123-.574l.033-.109c.218-.911.475-1.756.475-1.771.066-.228.119-.408.166-.527a3.508,3.508,0,0,1,.342-.57.907.907,0,0,1,.745-.356,1.154,1.154,0,0,1,.389.066l.242.1v-.261a1.51,1.51,0,0,0-.247-.816l1.13.095v.052c-.949,1.22-1.082,3.93-1.082,5.554v.161A17.137,17.137,0,1,0,18.152,1Z" transform="translate(-0.541 -0.207)" fill="#5f2567"/>
        <path id="Path_3" data-name="Path 3" d="M11.67,23.737A12.067,12.067,0,1,1,23.742,35.8,12.067,12.067,0,0,1,11.67,23.737" transform="translate(-6.13 -5.812)" fill="#cba5cd" fill-rule="evenodd"/>
        <path id="Path_4" data-name="Path 4" d="M29,66.111c0-1.623.152-4.334,1.082-5.554V60.5l-1.13-.095a1.509,1.509,0,0,1,.261.816v.261l-.242-.1a1.154,1.154,0,0,0-.389-.066.907.907,0,0,0-.745.356,3.508,3.508,0,0,0-.342.57c-.047.119-.1.3-.166.527,0,0-.271.859-.475,1.771l-.033.109c-.043.218-.085.4-.123.574v.028Z" transform="translate(-14.026 -31.416)" fill="#fff" fill-rule="evenodd"/>
        <path id="Path_5" data-name="Path 5" d="M12.72,24.288A11.568,11.568,0,1,1,24.293,35.857,11.568,11.568,0,0,1,12.72,24.288" transform="translate(-6.682 -6.364)" fill="#fff" fill-rule="evenodd"/>
        <path id="Path_6" data-name="Path 6" d="M14.6,25.1A10.643,10.643,0,1,1,25.233,35.735,10.643,10.643,0,0,1,14.6,25.1" transform="translate(-7.669 -7.273)" fill="#d3bf93" fill-rule="evenodd"/>
        <g id="Group_1" data-name="Group 1" transform="translate(8.956 7.973)">
          <path id="Path_7" data-name="Path 7" d="M22.073,21.463a12.432,12.432,0,0,0-2.549,2.3l.9.062s.3-.2.38,0a.342.342,0,0,1-.123.356h-.65l.328.223-.475.584v.949c0,.176.437.418.437.418a3.4,3.4,0,0,0,.878.242c.275,0,1.229-.147,1.832-.157s.56.646.56.646a1.623,1.623,0,0,0-.788-.313,6.347,6.347,0,0,0-1.828.052,1.538,1.538,0,0,1-.854-.138,1.011,1.011,0,0,0,.047,1.457,1.838,1.838,0,0,0,1.932.043,1.562,1.562,0,0,1,1.253,0,4.3,4.3,0,0,1-1.9.679,1.69,1.69,0,0,1-1.965-.745,2.06,2.06,0,0,1,.475-1.59,4.746,4.746,0,0,0-.408-.441c-.1-.076-.138-.65-.185-.8s-.337-.7-.337-.7a.816.816,0,0,1,.028-1.025,19.1,19.1,0,0,1,2.715-2.274,1.239,1.239,0,0,1,.608-1.424l1.267-.816a3.739,3.739,0,0,1,3.9-2.919q-3.1.7-3.266,3.057c-1.733.835-2.468,1.59-2.2,2.264" transform="translate(-18.868 -16.125)" fill="#5f2567" fill-rule="evenodd"/>
          <path id="Path_8" data-name="Path 8" d="M29.083,27.353l-1.258-.233a3.09,3.09,0,0,1-.475,1.087,1.828,1.828,0,0,1,1.595-.522Z" transform="translate(-23.324 -21.901)" fill="#5f2567" fill-rule="evenodd"/>
          <path id="Path_9" data-name="Path 9" d="M31.049,32.738a8.8,8.8,0,0,0-2.245,7.6,13.7,13.7,0,0,1,1.761-6.048c.195-.375,2.7-3.85,2.7-3.85l-1.595,1.59a8.024,8.024,0,0,1,1.538-3.185c-.237-1.794-.788-2.886-1.657-3.261a5.524,5.524,0,0,1,1.206,3.475,5.6,5.6,0,0,0-1.723,3.684" transform="translate(-24.013 -21.092)" fill="#5f2567" fill-rule="evenodd"/>
          <path id="Path_10" data-name="Path 10" d="M32.08,18.918l1.025-.517q1.068-1.9,4.211-1.866-3.992-.437-5.222,2.373" transform="translate(-25.808 -16.31)" fill="#5f2567" fill-rule="evenodd"/>
          <path id="Path_11" data-name="Path 11" d="M39.74,17.7a8.374,8.374,0,0,1,6.124,3.646q-1.9-4.13-6.124-3.646" transform="translate(-29.832 -16.928)" fill="#5f2567" fill-rule="evenodd"/>
          <path id="Path_12" data-name="Path 12" d="M40.161,22.689q.6-2.848-.921-3.119c.755.574.892,1.424.418,2.578Z" transform="translate(-29.569 -17.935)" fill="#5f2567" fill-rule="evenodd"/>
          <path id="Path_13" data-name="Path 13" d="M36.861,22.213l-.033-.774-.7.332c0-1.163.328-1.723.949-1.666q.869.451.475,1.823c-.185.342-.408.432-.674.285" transform="translate(-27.936 -18.214)" fill="#5f2567" fill-rule="evenodd"/>
          <path id="Path_14" data-name="Path 14" d="M44.36,21a4.771,4.771,0,0,1,.394.921s1-.119,2.136,1.339A3.375,3.375,0,0,0,44.36,21" transform="translate(-32.259 -18.686)" fill="#5f2567" fill-rule="evenodd"/>
          <path id="Path_15" data-name="Path 15" d="M46.146,24.741,45.79,23.72a2.687,2.687,0,0,1,1.685,1.557c-.669-.7-1.244-.579-1.329-.513" transform="translate(-33.01 -20.115)" fill="#5f2567" fill-rule="evenodd"/>
          <path id="Path_16" data-name="Path 16" d="M42.18,21.76a6.171,6.171,0,0,1,1.173,3.6,7.554,7.554,0,0,0,.983,4.139,11.921,11.921,0,0,1-.223-4.305A5.056,5.056,0,0,0,42.18,21.76" transform="translate(-31.114 -19.085)" fill="#5f2567" fill-rule="evenodd"/>
          <path id="Path_17" data-name="Path 17" d="M47.58,27.4a6.019,6.019,0,0,1,.133,2.905,4.961,4.961,0,0,0,.513,3.513c.437.85,1.135,1.377,1.424.394a3.1,3.1,0,0,0-.351-2.53,1.965,1.965,0,0,1-.57,2.478,4.248,4.248,0,0,1-.261-2.293c.014-1.1.275-2.919-.864-4.467" transform="translate(-33.95 -22.048)" fill="#5f2567" fill-rule="evenodd"/>
          <path id="Path_18" data-name="Path 18" d="M42.932,42.966a7.432,7.432,0,0,0,0-.75c-1.652-1.9-1.016-5.146-1.016-5.146a7.021,7.021,0,0,0,.646,5.464,4.453,4.453,0,0,0,.361.432" transform="translate(-30.827 -27.127)" fill="#5f2567" fill-rule="evenodd"/>
          <path id="Path_19" data-name="Path 19" d="M48.812,30.653c-1.391-1.424-1.22-2.373-1.22-2.373-.361,1.866.522,2.544,1.139,3.323a3.973,3.973,0,0,1,1.22,2.919c-.726,3.869-2.81,4.4-4.106,3.684a2.886,2.886,0,0,1-.085.693c.869.551,2.1.674,3.565-1.1a5.319,5.319,0,0,0-.513-7.158" transform="translate(-32.994 -22.51)" fill="#5f2567" fill-rule="evenodd"/>
          <path id="Path_20" data-name="Path 20" d="M46.242,40.21s-.3.256-.133,1.258.2,2.288-.679,2.1c0,0,.356.916.835.541a1.7,1.7,0,0,0,.252-1.847,5.222,5.222,0,0,1-.275-2.055" transform="translate(-32.821 -28.777)" fill="#5f2567" fill-rule="evenodd"/>
          <path id="Path_21" data-name="Path 21" d="M44.094,44.19s-.266.342-.247,1.676-.076,1.775-.707,1.367c0,0,.133,1.1.608.873s.722-1.277.6-1.946a4.312,4.312,0,0,1-.252-1.97" transform="translate(-31.618 -30.868)" fill="#5f2567" fill-rule="evenodd"/>
          <path id="Path_22" data-name="Path 22" d="M40.183,47.74a8.07,8.07,0,0,0-.195,1.548,1.822,1.822,0,0,1-1.082,1.832c-.679.166-.878-.408-.783-.821,0,0-.432,1.519.859,1.628.987.081,1.538-1.177,1.391-2.264a11.365,11.365,0,0,1-.19-1.9" transform="translate(-28.946 -32.732)" fill="#5f2567" fill-rule="evenodd"/>
          <path id="Path_23" data-name="Path 23" d="M35.6,38.79s.617,4.662-1.5,6.646c-1,.921-2.373.669-1.9-1.866,0,0-.873,3.28,1.04,3.1s3.171-4.1,2.373-7.861" transform="translate(-25.767 -28.031)" fill="#5f2567" fill-rule="evenodd"/>
          <path id="Path_24" data-name="Path 24" d="M31.255,48.92a3.935,3.935,0,0,0-.242,3.489.949.949,0,0,0,1.248.261,1.035,1.035,0,0,1-1.832-.209c-.546-1.125.261-2.986.826-3.541" transform="translate(-24.846 -33.352)" fill="#5f2567" fill-rule="evenodd"/>
          <path id="Path_25" data-name="Path 25" d="M41.938,28.506s1.7,3.589.081,6.584A7.082,7.082,0,0,0,41.8,29.5s0-.1-.152.085-.323.475-.475.185.612-1.576.769-1.263" transform="translate(-30.577 -22.603)" fill="#5f2567" fill-rule="evenodd"/>
          <path id="Path_26" data-name="Path 26" d="M51.437,25.92s1.557,1.282,1.818,5.222a7.4,7.4,0,0,0-1.671-4.12,3.4,3.4,0,0,0,.29,1.7c.119.109.2-.522.138-.888.332.75.356,1.334.114,1.424s-.949-1.163-.688-3.323" transform="translate(-35.947 -21.27)" fill="#5f2567" fill-rule="evenodd"/>
          <path id="Path_27" data-name="Path 27" d="M35.3,46.519a6.09,6.09,0,0,0,.574-.679,3.181,3.181,0,0,1-.821,2.715,3.1,3.1,0,0,0,.247-2.036" transform="translate(-27.368 -31.734)" fill="#5f2567" fill-rule="evenodd"/>
          <path id="Path_28" data-name="Path 28" d="M33.243,41.73c.095-.195.949-.589,1.32-.062.152.256-1.173,2.326-3.142,3.171a7.529,7.529,0,0,0,2.207-2.312c.323-.574-.589-.4-.385-.8" transform="translate(-25.462 -29.405)" fill="#5f2567" fill-rule="evenodd"/>
        </g>
        <path id="Path_29" data-name="Path 29" d="M37.27,70.834c.256-.1.3,0-.085.171a13.965,13.965,0,0,1-7.776.361,36.766,36.766,0,0,1-5.45-1.529l.242-.527s12.731,1.652,13.068,1.524" transform="translate(-12.586 -36.091)" fill="#dbc792" fill-rule="evenodd"/>
        <path id="Path_30" data-name="Path 30" d="M25.81,60.23l.166-.38c.252.123,2.715,1.329,4.035,1.78a24.844,24.844,0,0,0,7.344,1.614,14.417,14.417,0,0,0,2.677-.228,9.969,9.969,0,0,0,2.051-.6,5.264,5.264,0,0,0,1.424-1.291c.161-.209.3-.337.309-.218.18,1.68-1.794,2.82-4.571,3.18s-5.521-.916-8.122-1.51a13.367,13.367,0,0,1-5.293-2.35" transform="translate(-13.558 -31.121)" fill="#cba5cd" fill-rule="evenodd"/>
        <path id="Path_31" data-name="Path 31" d="M25.81,60.5,26,60.19c.256.119,2.687,1.253,4.006,1.709a24.844,24.844,0,0,0,7.344,1.614,14.416,14.416,0,0,0,2.677-.228,9.494,9.494,0,0,0,2.8-.949c.123-.043-.028.133-.085.185a8.26,8.26,0,0,1-3.608,1.339c-2.848.366-5.412-.418-8.032-1.011A13.405,13.405,0,0,1,25.81,60.5" transform="translate(-13.558 -31.3)" fill="#dbc792" fill-rule="evenodd"/>
        <path id="Path_32" data-name="Path 32" d="M40.14,63.848l.2.3s.081.09-.636.679a11.673,11.673,0,0,1-2.559,1.69,13.642,13.642,0,0,1-7.733.138A29.739,29.739,0,0,1,24,64.935L25.215,61a38.073,38.073,0,0,0,3.736,1.685,20.85,20.85,0,0,0,7.443,1.576,12.071,12.071,0,0,0,3.745-.413" transform="translate(-12.607 -31.725)" fill="#cba5cd" fill-rule="evenodd"/>
        <path id="Path_33" data-name="Path 33" d="M29.315,64.051a21.29,21.29,0,0,0,7.6,1.6,10.314,10.314,0,0,0,3.48-.375,11.654,11.654,0,0,1-3.048,2,14.343,14.343,0,0,1-7.429.033A37.5,37.5,0,0,1,25,65.812l1.011-3.242a29.283,29.283,0,0,0,3.323,1.481" transform="translate(-13.133 -32.55)" fill="#dbc792" fill-rule="evenodd"/>
        <path id="Path_34" data-name="Path 34" d="M37.794,59.3s-1.661.9-1.614,6.2a6.845,6.845,0,0,0,.551,3.124l-2.62-1.68L31.5,68.652s.28-2.207.28-3.1.038-4.747,1.329-5.7a.171.171,0,0,1,.147-.047,10.386,10.386,0,0,0,4.538-.475" transform="translate(-16.547 -30.832)" fill="#dbc792" fill-rule="evenodd"/>
        <path id="Path_35" data-name="Path 35" d="M30.88,68.853l.057-.517c0-.062.28-2.207.28-3.081,0-1.8.185-4.956,1.424-5.905a.418.418,0,0,1,.29-.114h.128c.256,0,.688.062,1.229.062A8.867,8.867,0,0,0,37.4,58.78l.214.475s-1.676.821-1.652,5.839c0,2.468.309,2.373.418,2.848l.332.916-2.929-1.9Zm2.905-2.274,2.3,1.367a5.7,5.7,0,0,1-.475-2.715c0-3.233.579-4.885,1.092-5.7a10.3,10.3,0,0,1-2.44.3h0c-.565,0-1.006-.043-1.272-.062h-.057c-.764.536-1.21,2.616-1.334,5.473-.043,1.044-.18,1.381-.3,2.905Z" transform="translate(-16.221 -30.559)" fill="#cba5cd"/>
        <path id="Path_36" data-name="Path 36" d="M35.046,66.755,33.28,67.927V67.8a9.137,9.137,0,0,0,.128-1.661c0-2.815.441-4.794,1.248-5.587l.076.081c-.783.769-1.215,2.725-1.215,5.506A8.017,8.017,0,0,1,33.4,67.7l1.642-1.073,1.709,1.13c-.29-.8-.422-.741-.413-1.638a14.393,14.393,0,0,1,.921-5.649l.1.052a13.251,13.251,0,0,0-.9,5.6,6.74,6.74,0,0,0,.546,2.1Z" transform="translate(-17.482 -31.447)" fill="#cba5cd"/>
        <path id="Path_37" data-name="Path 37" d="M23.372,64.691c.043-.195.085-.389.138-.584a.546.546,0,0,1,0-.119c.228-.949.475-1.775.475-1.775.062-.218.119-.413.171-.546a3.869,3.869,0,0,1,.366-.608,1.182,1.182,0,0,1,1.329-.342c-.028-.859-.65-1.358-1.623-1.277s-1.263,1.173-1.277,1.685-.617.812-.949,1.049-.736.271-.949.513.294.684.793.475l.389-.147a3.048,3.048,0,0,1-.475,1.291.983.983,0,0,1-1.04.266s-.09,1.424,1.22,1.372a1.585,1.585,0,0,0,1.424-1.267h0" transform="translate(-10.883 -30.902)" fill="#dbc792" fill-rule="evenodd"/>
        <path id="Path_38" data-name="Path 38" d="M21.736,65.947h0a1.258,1.258,0,0,1-.949-.366,1.733,1.733,0,0,1-.38-1.187v-.218l.214.066a.949.949,0,0,0,.29.047.66.66,0,0,0,.555-.252,2.43,2.43,0,0,0,.37-.949l-.1.047a.878.878,0,0,1-.3.057.812.812,0,0,1-.741-.4.366.366,0,0,1,.057-.408,1.424,1.424,0,0,1,.555-.323,2.474,2.474,0,0,0,.437-.214c.047-.043.109-.076.176-.123.3-.2.674-.475.684-.793,0-.57.408-1.766,1.481-1.856h.209a1.448,1.448,0,0,1,1.623,1.443v.261l-.242-.1a1.154,1.154,0,0,0-.389-.066.907.907,0,0,0-.745.356,3.508,3.508,0,0,0-.342.57c-.047.119-.1.3-.166.527,0,0-.271.859-.475,1.771l-.033.109c-.043.218-.085.4-.123.574v.038a1.719,1.719,0,0,1-1.571,1.386Zm-.987-1.334a1.272,1.272,0,0,0,.29.736.9.9,0,0,0,.7.261h.052a1.424,1.424,0,0,0,1.272-1.13h0c.038-.18.081-.366.128-.579a.593.593,0,0,1,.033-.147c.223-.911.475-1.761.475-1.771a5.739,5.739,0,0,1,.18-.574h0a3.428,3.428,0,0,1,.385-.641,1.248,1.248,0,0,1,1.011-.475,1.425,1.425,0,0,1,.261.024,1.13,1.13,0,0,0-1.239-.892h-.18c-.845.085-1.149,1.035-1.168,1.51s-.475.831-.831,1.063a1.9,1.9,0,0,0-.176.114,2.193,2.193,0,0,1-.508.252,1.187,1.187,0,0,0-.422.237v.043a.527.527,0,0,0,.627.19l.646-.252-.028.275a3.256,3.256,0,0,1-.475,1.377.987.987,0,0,1-.826.385.693.693,0,0,1-.2,0Z" transform="translate(-10.718 -30.71)" fill="#cba5cd"/>
        <g id="Group_2" data-name="Group 2" transform="translate(16.443 29.835)">
          <path id="Path_39" data-name="Path 39" d="M36.351,63.376,36,63.253V62.18h.052a4.481,4.481,0,0,0,.7.669.911.911,0,0,0,.475.19.389.389,0,0,0,.28-.1.332.332,0,0,0,.109-.252.432.432,0,0,0-.076-.242.475.475,0,0,0-.228-.157v-.047a.6.6,0,0,1,.375.171.475.475,0,0,1,.133.347.532.532,0,0,1-.138.366.475.475,0,0,1-.342.147.627.627,0,0,1-.266-.066,1.714,1.714,0,0,1-.475-.318c-.242-.223-.385-.356-.437-.413v.475a1.1,1.1,0,0,0,0,.2.4.4,0,0,0,.043.1.256.256,0,0,0,.095.076Z" transform="translate(-35.354 -62.18)" fill="#5f2567"/>
          <path id="Path_40" data-name="Path 40" d="M36.386,65.22a1.381,1.381,0,0,1,.532.095.793.793,0,0,1,.332.247.416.416,0,0,1-.123.622,1.139,1.139,0,0,1-.717.2,1.467,1.467,0,0,1-.532-.085.7.7,0,0,1-.318-.233.44.44,0,0,1,.2-.7,1.22,1.22,0,0,1,.622-.152Zm-.033.261a1.647,1.647,0,0,0-.608.095c-.138.052-.2.123-.2.228a.252.252,0,0,0,.066.147.413.413,0,0,0,.218.119,2.787,2.787,0,0,0,.646.062,1.8,1.8,0,0,0,.517-.066.475.475,0,0,0,.214-.123.19.19,0,0,0,.047-.133.214.214,0,0,0-.081-.161.688.688,0,0,0-.351-.128A2.635,2.635,0,0,0,36.352,65.481Z" transform="translate(-35.071 -63.776)" fill="#5f2567"/>
          <path id="Path_41" data-name="Path 41" d="M36.949,68.49l.218.441v.043H35.648a1.238,1.238,0,0,0-.19,0,.085.085,0,0,0-.057.057.3.3,0,0,0-.024.161H35.33v-.669h.047a.323.323,0,0,0,.024.166.114.114,0,0,0,.047.047.593.593,0,0,0,.2,0H36.6a1.556,1.556,0,0,0,.252,0,.152.152,0,0,0,.081,0,.133.133,0,0,0,0-.062.285.285,0,0,0-.043-.133Z" transform="translate(-35.002 -65.495)" fill="#5f2567"/>
          <path id="Path_42" data-name="Path 42" d="M35.309,71.825h-.195v-.242H34.64v-.218h.475V70.6h.171l1.2.835v.147H35.309Zm0-.475H36.2l-.892-.636Z" transform="translate(-34.64 -66.603)" fill="#5f2567"/>
        </g>
        <path id="Path_43" data-name="Path 43" d="M9.076,27.394a.873.873,0,0,1-.176.081l-.209-.266L8.578,27.1l-.6.294-.475.271-.062.028c-.066.028-.223.119-.475.261L6.912,28l-.209.109-.195.123-.1.057a3.147,3.147,0,0,0-.3.195.214.214,0,0,0-.047.047.142.142,0,0,0,0,.047v.047a1.339,1.339,0,0,0,.085.214v.043a.646.646,0,0,1,.033.1.266.266,0,0,1-.085.047.185.185,0,0,1-.047.024.983.983,0,0,1-.085-.128,1.253,1.253,0,0,0-.066-.114c-.081-.2-.152-.347-.2-.441a.756.756,0,0,0-.071-.128,1.292,1.292,0,0,1-.057-.119c-.019-.033-.1-.171-.233-.361a.608.608,0,0,1-.047-.1L5.2,27.508l.066-.043.109-.043.29.38a.071.071,0,0,0,.095,0l.081-.052h.043l.1-.057.062-.062h0a.076.076,0,0,1,.062,0L6.4,27.47l.062-.038.076-.038.081-.043.157-.095-.038-.119-.195-.351-.09-.166-.228-.446-.237-.4a.845.845,0,0,0-.109-.157l-.394.2-.1.052-.394.233-.142.114a.076.076,0,0,0,0,.052,1.619,1.619,0,0,0,.076.375.674.674,0,0,1,0,.095.731.731,0,0,1-.142.057c-.024-.033-.038-.052-.038-.062l-.123-.223a3.6,3.6,0,0,0-.214-.475.921.921,0,0,0-.047-.081l-.176-.3c0-.028-.033-.052-.047-.076a.579.579,0,0,1-.114-.161,1.69,1.69,0,0,1-.085-.161l.171-.085c.109.128.18.214.214.247a1.386,1.386,0,0,0,.133.1h.1l.052-.038h.033c.038,0,.057,0,.076-.028l.062-.038.114-.066.294-.166.218-.128.3-.157c.071-.033.2-.119.413-.237l.332-.185.252-.166c.052-.033.114-.062.19-.1a.608.608,0,0,0-.028-.109,2.207,2.207,0,0,1-.085-.38l.161-.1L7,23.73c.043.076.085.161.133.266a6.5,6.5,0,0,0,.318.627,4.6,4.6,0,0,0,.3.475.4.4,0,0,1,.028.09.736.736,0,0,1-.133.071L7.515,25.1l-.128-.166-.066-.062a6.7,6.7,0,0,0-.636.323l-.209.1a2.2,2.2,0,0,1-.28.185,1.32,1.32,0,0,0,.09.185l.593,1.092v.024h0l.024.038.062.1L7,26.991a.356.356,0,0,0,.071.085l.18-.085h.028l.081-.047.722-.4.119-.076v-.028l-.138-.38q0-.021,0-.043s0-.043,0-.062a.7.7,0,0,1,.066-.052l.09-.038c.028.062.057.1.081.147s.033.066.052.095v.043l.176.337c.033.081.09.19.166.332l.033.052a.973.973,0,0,0,.071.1C8.858,27.043,8.944,27.19,9.076,27.394ZM6.822,23.122a1.951,1.951,0,0,0-.119-.38v-.1c-.033-.418-.062-.679-.076-.788H6.565l-.133.024v.195a.475.475,0,0,1-.028.242.133.133,0,0,1-.095.052.584.584,0,0,1-.195,0c-.347-.062-.565-.1-.66-.133l-.176-1.021.475-.29.237-.147a.209.209,0,0,1,.071,0,.081.081,0,0,1,.062,0,.522.522,0,0,1,.076.147l.114.28a1.168,1.168,0,0,0,.176,0l-.024-.128-.095-.446c0-.057-.033-.161-.052-.294s-.038-.266-.052-.432a1.912,1.912,0,0,0-.043-.427H6.171l-.128.033a.907.907,0,0,0,0,.242.375.375,0,0,1-.028.166.475.475,0,0,1-.119.1,2.758,2.758,0,0,1-.313.195l-.347.2c-.133.081-.3.185-.5.3s-.413.247-.627.385l-1.035.6-.047.033v.119a.332.332,0,0,0,.033.171l1.742.361,1.476.309a.475.475,0,0,1,.171.09.774.774,0,0,1,.1.233c.033.081.057.138.071.166h.185Zm-1.666-.949c-.062-.413-.095-.65-.109-.726V21.38c-.152.076-.323.176-.517.29s-.342.214-.446.285ZM6.314,18.5a3.891,3.891,0,0,1,.076-.679l.071-.451a2.6,2.6,0,0,0,.033-.475,1.581,1.581,0,0,0-.071-.475.878.878,0,0,0-.2-.351.674.674,0,0,0-.237-.2,1.106,1.106,0,0,0-.37-.109.774.774,0,0,0-.56.128,1.092,1.092,0,0,0-.418.565,2.487,2.487,0,0,0-.128-.366.916.916,0,0,0-.18-.261.65.65,0,0,0-.285-.109.788.788,0,0,0-.28,0,.636.636,0,0,0-.252.114.674.674,0,0,0-.209.209,1.125,1.125,0,0,0-.119.2,1.813,1.813,0,0,0-.123.432v.475l-.157.878-.085.584h.185l.071-.256a.275.275,0,0,1,.052-.152l.028-.024a.783.783,0,0,1,.252,0l.921.147,1.12.157a2.73,2.73,0,0,1,.432.081A.7.7,0,0,1,6,18.627a1.524,1.524,0,0,1,.028.29,1.476,1.476,0,0,0,0,.152l.2.019c.047-.323.066-.527.071-.6Zm-1.9-.883a2.08,2.08,0,0,1,.047-.252,1.016,1.016,0,0,0-.071-.655.6.6,0,0,0-.475-.271.551.551,0,0,0-.475.133.9.9,0,0,0-.252.555c0,.071,0,.176,0,.294h.176A5.614,5.614,0,0,1,4,17.5l.223.038Zm1.685.2a.84.84,0,0,0,.119-.309,1.011,1.011,0,0,0-.024-.5.608.608,0,0,0-.209-.318.949.949,0,0,0-.4-.142.84.84,0,0,0-.422.033.688.688,0,0,0-.332.285,1.638,1.638,0,0,0-.147.551.7.7,0,0,0,0,.237l.323.043.394.062.608.076a.266.266,0,0,0,.081-.033Zm.873-2.744c.052-.171.095-.3.128-.394l.185-.432c.095-.19.152-.294.166-.318a.271.271,0,0,0,.033-.062.475.475,0,0,1,.028-.09l.024-.052a.266.266,0,0,0-.09-.033.408.408,0,0,0-.123-.043l-.085.142a1.381,1.381,0,0,1-.157.256.09.09,0,0,1-.057,0l-.095-.038-.475-.2-.328-.138-.684-.285L4.8,13.115l-.18-.062-.176-.09a1.172,1.172,0,0,1,0-.237v-.252l-.057-.033L4.33,12.4a1.957,1.957,0,0,1-.076.228c-.076.223-.128.385-.171.475l-.071.161-.332.7.218.081.038-.081a1.2,1.2,0,0,1,.195-.309h.09l.109.038.285.109.128.057.328.128.5.218.133.052.565.233.29.119a.446.446,0,0,1,.195.128.949.949,0,0,1,0,.275c0,.085,0,.147-.028.18l.185.076Zm1.12-2.459c.147-.223.271-.413.385-.57l.275-.356A3.142,3.142,0,0,0,9,11.3a2.283,2.283,0,0,0,.166-.475,1.2,1.2,0,0,0,0-.408.7.7,0,0,0-.119-.285,1.282,1.282,0,0,0-.256-.271.816.816,0,0,0-.56-.147,1.13,1.13,0,0,0-.636.3,2.426,2.426,0,0,0,.066-.385A.726.726,0,0,0,7.6,9.323a.617.617,0,0,0-.2-.233.731.731,0,0,0-.252-.123.755.755,0,0,0-.275,0,.878.878,0,0,0-.28.09,1.253,1.253,0,0,0-.2.123,1.718,1.718,0,0,0-.3.318l-.1.142c-.047.057-.071.095-.085.114a.2.2,0,0,0-.033.052L5.8,9.892l-.522.7-.342.475.157.109.185-.157a.323.323,0,0,1,.114-.109.071.071,0,0,1,.043,0,1.709,1.709,0,0,1,.223.109c.408.285.665.475.75.532l.926.66a3.84,3.84,0,0,1,.347.28.665.665,0,0,1,.066.1.949.949,0,0,1-.109.266c-.024.057-.047.1-.066.142l.171.128c.19-.294.3-.47.342-.532ZM6.836,10.946c.047-.052.1-.119.161-.195a1.1,1.1,0,0,0,.237-.579A.6.6,0,0,0,6.94,9.7.541.541,0,0,0,6.466,9.6a.859.859,0,0,0-.475.37c-.043.066-.095.152-.152.261l.142.1c.128.085.3.2.517.361l.18.138Zm1.424.973A.741.741,0,0,0,8.5,11.7a1.006,1.006,0,0,0,.218-.451.536.536,0,0,0-.043-.38.864.864,0,0,0-.313-.323.783.783,0,0,0-.394-.161.66.66,0,0,0-.422.095,1.657,1.657,0,0,0-.389.413,1.04,1.04,0,0,0-.119.2l.266.19.347.209.5.356a.337.337,0,0,0,.076.052Zm2.715-6.655c.19-.076.313-.095.37-.062a1.6,1.6,0,0,1,.252.451l.513,1.163a4.1,4.1,0,0,0,.29.5,1.078,1.078,0,0,0,.385.342,1,1,0,0,0,.527.081A1.942,1.942,0,0,0,14,7.557a2.279,2.279,0,0,0,.546-.332,1.31,1.31,0,0,0,.328-.375,1,1,0,0,0,.133-.389.869.869,0,0,0,0-.3,4.842,4.842,0,0,0-.266-.684L14.5,5l-.2-.361a.475.475,0,0,1-.047-.1c0-.028-.038-.076-.062-.133s-.081-.166-.1-.209a.836.836,0,0,1-.066-.123.119.119,0,0,1,0-.1.983.983,0,0,1,.166-.114,1.163,1.163,0,0,0,.18-.114.157.157,0,0,0-.024-.071.475.475,0,0,0-.047-.1h-.043a3.826,3.826,0,0,1-.441.218l-.475.19-.19.081.076.19h.033l.228-.109a.328.328,0,0,1,.214,0,.389.389,0,0,1,.138.171l.066.119a13.791,13.791,0,0,1,.631,1.31,1.937,1.937,0,0,1,.18.522,1.116,1.116,0,0,1,0,.3.536.536,0,0,1-.085.2.783.783,0,0,1-.176.214,1.98,1.98,0,0,1-.408.256.949.949,0,0,1-.446.076.684.684,0,0,1-.313-.1,1.011,1.011,0,0,1-.313-.389l-.3-.6L12.48,5.8l-.095-.19-.1-.228-.043-.09-.057-.123a.949.949,0,0,1-.1-.318c0-.047.066-.095.161-.133a2.374,2.374,0,0,0,.271-.142h0l-.066-.142V4.4a1.5,1.5,0,0,1-.19.09l-.332.152-.38.176-.389.152-.261.109-.09.043.095.19A.536.536,0,0,0,10.975,5.264Zm5.563-1.927a.574.574,0,0,1,.214.133.252.252,0,0,1,.062.109A1.282,1.282,0,0,1,16.871,4l.028.546.024.864v.665c0,.095,0,.157-.038.18a.555.555,0,0,1-.266.043h-.1a.788.788,0,0,0-.123,0v.2a.361.361,0,0,0,.09,0h.157a4.015,4.015,0,0,0,.565-.038,2.091,2.091,0,0,1,.541.024h.1V6.266h-.071a1.956,1.956,0,0,1-.475-.043.741.741,0,0,1-.033-.081.332.332,0,0,1,0-.095c0-.171-.038-.328-.047-.475l-.033-.347v-.37l-.066-.992.475.38c.185.152.389.332.617.541l.342.332.475.437.669.617.337.318h.3V5.606a.95.95,0,0,0,0-.142l-.062-.949a1.457,1.457,0,0,0,0-.161q-.028-.228-.043-.612V3.4a.157.157,0,0,1,0-.1l.138-.1q.046-.04.095-.076a.475.475,0,0,0,.123-.052V2.9h-.123l-.579.047-.527.033H19.3v.157a.665.665,0,0,0,.218.052.574.574,0,0,1,.261.081.384.384,0,0,1,.043.209,1.957,1.957,0,0,0,.047.4,3.275,3.275,0,0,1,.028.4,3.652,3.652,0,0,0,.033.38c.009.1.024.252.033.432l.024.309v.066c-1.125-1.044-1.771-1.647-1.951-1.823s-.418-.375-.693-.612h-.674a1.856,1.856,0,0,0-.223,0h-.294l.024.185a1.951,1.951,0,0,1,.361.119Zm4.975,3.285.408.071.475.123c.2.066.313.114.337.119a.185.185,0,0,0,.066,0h.147a.513.513,0,0,1,.028-.09V6.717l-.133-.009a1.9,1.9,0,0,1-.28-.119.176.176,0,0,1,0-.057v-.1l.123-.522.095-.342.166-.688c.038-.157.1-.38.176-.669a1.606,1.606,0,0,1,.038-.185,1.116,1.116,0,0,1,.062-.19,1.832,1.832,0,0,1,.237,0h.256l.033-.119V3.636l-.237-.043-.475-.1-.166-.071L22.145,3.2l-.052.218.085.028a1.139,1.139,0,0,1,.337.152.5.5,0,0,1,0,.085l-.028.114-.062.3-.057.157-.085.342s-.047.185-.142.527l-.033.138-.152.589-.062.309a.5.5,0,0,1-.1.209,1.054,1.054,0,0,1-.28.028h-.18l-.047.185Zm3.427-2.44a.826.826,0,0,1,.185.147.3.3,0,0,1,.047.133c0,.028,0,.228-.028.593l-.071.783-.085,1.234c-.043.356-.066.56-.076.617a1.027,1.027,0,0,0,0,.171.731.731,0,0,0,.128.071l.114.057c.081-.066.214-.19.4-.375l.047-.033.256-.223.252-.218c.085-.066.157-.128.223-.19l.722-.622a5.739,5.739,0,0,1,.608-.475.347.347,0,0,1,.081-.057,2.193,2.193,0,0,1,.437.038.418.418,0,0,0,.047-.085l.043-.076-.237-.1c-.1-.038-.214-.09-.347-.157a3.544,3.544,0,0,1-.38-.233l-.233-.147a1.035,1.035,0,0,0-.071.1.432.432,0,0,0-.024.081l.09.062a.318.318,0,0,1,.081.062.475.475,0,0,1,.185.185.1.1,0,0,1,0,.1.555.555,0,0,1-.128.166l-.271.266-.085.081-.157.133-.688.627-.318.266c0-.128.028-.266.038-.413L25.786,6a6.375,6.375,0,0,1,.071-.8l.033-.247a.147.147,0,0,1,0-.057.081.081,0,0,1,.076-.057.356.356,0,0,1,.2,0l.294.1.095-.195-.171-.09-.247-.1a2.7,2.7,0,0,1-.29-.142,6,6,0,0,1-.745-.437s-.066-.038-.147-.081l-.109.2Zm4.272,2.492a.759.759,0,0,0,.076.09A1.538,1.538,0,0,1,29.465,7a.55.55,0,0,0,.043.066.152.152,0,0,1,.028.085A.171.171,0,0,0,29.5,7.2l-.223.242-.218.209-.294.309-.228.214-.717.7-.057.057-.109.109a.475.475,0,0,1-.161.114,1.424,1.424,0,0,1-.328-.214A1.614,1.614,0,0,0,27,8.81l-.133.133.233.223.081.081c.233.214.418.394.565.551.3.3.551.574.75.8l.536.593.2.19.252-.176.427-.285.071-.043.09-.066-.062-.066a.75.75,0,0,0-.1-.09,1.324,1.324,0,0,1-.565.128.65.65,0,0,1-.351-.1,3.176,3.176,0,0,1-.475-.418,2.041,2.041,0,0,1-.427-.517.152.152,0,0,1,.047-.157l.413-.394c.1-.1.233-.218.38-.366a.475.475,0,0,1,.066-.062,6.024,6.024,0,0,1,.437.418,1.766,1.766,0,0,1,.261.3.176.176,0,0,1,0,.123.973.973,0,0,1-.161.285l-.095.147.133.138.043-.038c.038-.038.095-.09.161-.166l.161-.171.095-.085.261-.247c.057-.057.142-.142.252-.261L30.433,9.1H30.4a3.133,3.133,0,0,1-.347.2.247.247,0,0,1-.138,0,.589.589,0,0,1-.214-.147,5.37,5.37,0,0,1-.475-.475l-.071-.09.237-.233.323-.3c.218-.214.347-.337.375-.37l.413.413q.2.2.356.4l.1.128a.584.584,0,0,1,.1.138,1.077,1.077,0,0,1-.057.294l-.062.209-.066.161.057.071.081.071.033-.028.081-.081.394-.385a.176.176,0,0,0,.062-.133,2.507,2.507,0,0,0-.3-.37l-.337-.347c-.223-.237-.475-.475-.769-.76-.19-.185-.3-.3-.347-.347a3.436,3.436,0,0,1-.323-.37c-.043-.062-.1-.128-.166-.209ZM29.84,12l-.081.043.062.1a2.132,2.132,0,0,0,.142.29l.185.318.047.09c.033.062.114.275.252.631l.052.1a.2.2,0,0,0,.024.057,1.1,1.1,0,0,0,.19-.076,2.634,2.634,0,0,0-.071-.37.66.66,0,0,1-.024-.2l.475-.2.522-.271a1.106,1.106,0,0,1,.171-.071l.085.161a.541.541,0,0,1,.071.271,1.21,1.21,0,0,1-.185.3c-.256.332-.441.574-.565.722L31,14.165l-.119.152c0,.033.033.062.057.1s.085.142.095.161l.119.242.085.195.047.095.043.133.028.047.028.062a.128.128,0,0,0,.052-.066.18.18,0,0,0,.062-.047.721.721,0,0,0,0-.2,1.058,1.058,0,0,1,0-.228,2.435,2.435,0,0,1,.195-.328l.437-.684c.043-.071.1-.166.161-.28a.949.949,0,0,1,.085-.133,1.011,1.011,0,0,0,.532.328.722.722,0,0,0,.508-.057.831.831,0,0,0,.437-.57,1.282,1.282,0,0,0-.128-.9c-.1-.209-.209-.4-.318-.579l-.161-.29-.066-.128a1.829,1.829,0,0,1-.081-.195l-.114-.218a1.282,1.282,0,0,0-.123-.214h-.047l-.138.071a1.917,1.917,0,0,0,.1.275l.038.152-.627.323-.475.228-.128.057-.228.119-.29.133-.527.261-.233.109h-.081a1.215,1.215,0,0,1-.157-.2.522.522,0,0,0-.142-.157Zm2.155.294c.033.076.057.133.076.166a.949.949,0,0,0,.427.513.541.541,0,0,0,.475-.024,1.021,1.021,0,0,0,.256-.176.527.527,0,0,0,.152-.2.7.7,0,0,0,.028-.3,1.163,1.163,0,0,0-.123-.356.9.9,0,0,0-.1-.18h-.043l-.318.161-.2.09-.261.133c-.076.028-.166.076-.29.128Zm3.133,4.339a1.828,1.828,0,0,0-.033-.38,1.2,1.2,0,0,0-.475-.826.973.973,0,0,0-.741-.142,1.149,1.149,0,0,0-.413.19,1,1,0,0,0-.3.366,2.957,2.957,0,0,0-.176.731,2.563,2.563,0,0,1-.152.612.527.527,0,0,1-.328.247.536.536,0,0,1-.318-.047.584.584,0,0,1-.247-.233,1.049,1.049,0,0,1-.123-.3.821.821,0,0,1,0-.3.674.674,0,0,1,.081-.261,1.1,1.1,0,0,1,.18-.223,3.8,3.8,0,0,1,.323-.228l-.071-.228h-.1L32,15.66a3.432,3.432,0,0,1-.361.076H31.61a.109.109,0,0,0-.043.033.627.627,0,0,0-.033.18l-.033.332a2.464,2.464,0,0,0,.033.475,1.619,1.619,0,0,0,.138.441,1.424,1.424,0,0,0,.218.313,1.609,1.609,0,0,0,.237.209.636.636,0,0,0,.271.114,1.377,1.377,0,0,0,.5,0,1.063,1.063,0,0,0,.361-.128,1.077,1.077,0,0,0,.275-.275,1.144,1.144,0,0,0,.157-.389,2.473,2.473,0,0,0,.071-.418,1.533,1.533,0,0,1,.176-.684.475.475,0,0,1,.294-.209.427.427,0,0,1,.361.081.622.622,0,0,1,.218.385.636.636,0,0,1-.1.517,1.453,1.453,0,0,1-.422.323v.028l.028.195h.1a2.015,2.015,0,0,0,.418-.114l.261-.1a3.088,3.088,0,0,0,.038-.408ZM31.862,18.8v.888c-.028.209-.038.332-.043.356a.3.3,0,0,0,0,.066v.152h.223a.721.721,0,0,1,.024-.166,2.881,2.881,0,0,1,.057-.294H33.87l.693.024a1.14,1.14,0,0,1,.185,0,.76.76,0,0,1,.2,0,1.747,1.747,0,0,1,.066.228,1.049,1.049,0,0,0,.066.242h.2v-.75a1.661,1.661,0,0,1,0-.176l.043-.76h-.233a.252.252,0,0,0,0,.095,1.016,1.016,0,0,1-.071.351.441.441,0,0,1-.09,0h-.916l-.57.028H32.365a.555.555,0,0,1-.228-.052,1.249,1.249,0,0,1-.085-.266.448.448,0,0,0-.043-.176h-.195A.4.4,0,0,1,31.862,18.8Zm3.256,3a5.749,5.749,0,0,1-.617-.4.5.5,0,0,0-.138.128.184.184,0,0,0,.052.114,1.79,1.79,0,0,1,.266.427.807.807,0,0,1-.043.332,4.847,4.847,0,0,1-.157.522.038.038,0,0,1,0,.028.057.057,0,0,1-.043,0,4.22,4.22,0,0,1-.475-.119l-.978-.247c-.475-.119-.774-.214-.983-.28a.475.475,0,0,1-.123-.066,2.887,2.887,0,0,1,0-.4.38.38,0,0,0-.047-.242h-.147l-.038.195c-.047.256-.081.413-.09.475-.09.323-.152.546-.2.669a3.869,3.869,0,0,0-.142.446.546.546,0,0,1,0,.095h.18a.949.949,0,0,0-.009-.119,1.04,1.04,0,0,0,.09-.18.684.684,0,0,1,.076-.142.712.712,0,0,1,.275.038l.337.09.821.214.755.2.351.09a.949.949,0,0,1,.161.057,1.348,1.348,0,0,1-.043.185,5.492,5.492,0,0,1-.157.536.166.166,0,0,1-.062.066,2.1,2.1,0,0,1-.237.043,1.733,1.733,0,0,0-.328.071.792.792,0,0,0,0,.195l.119.043.133.033.228.066.536.133a.74.74,0,0,1,0-.076l.028-.109a.237.237,0,0,0-.062-.047.418.418,0,0,1-.1-.1v-.157l.214-.8.19-.579.085-.318v-.047a1.538,1.538,0,0,1,.095-.356c.052-.214.085-.328.095-.351a1.158,1.158,0,0,1,.2-.066h.047l.043-.157A1.615,1.615,0,0,0,35.1,21.8Zm-1.457,4.519-.028-.024H33.59a1.728,1.728,0,0,1-.18.171.323.323,0,0,1-.1.052H31.449a.636.636,0,0,1-.418-.066l-.052-.028-.147-.095c-.081-.052-.237-.157-.475-.3l-.128-.085V25.88l.18-.475-.066-.047-.071-.038-.1.152a1.662,1.662,0,0,0-.095.176.252.252,0,0,1-.057.1l-.114.19-.161.252-.114.161-.176.223-.176.256.062.043a.18.18,0,0,0,.052.038h.052a.886.886,0,0,0,.195-.214c.1-.138.095-.109.119-.128h.038l.579.366a.693.693,0,0,1,.114.081l.062.038.19.128.071.047a.347.347,0,0,1,.052.085c.057.1.142.328.271.655l.256.608a1.742,1.742,0,0,1,.19.513.736.736,0,0,1-.085.309v.038l.161.1.038-.062a2.122,2.122,0,0,0,.1-.2v-.038l.071-.109a.138.138,0,0,1,.043-.047l.318-.446a1.268,1.268,0,0,0-.171-.09.741.741,0,0,0-.062.062.522.522,0,0,1-.071.076c-.043.057-.057.085-.071.09a.147.147,0,0,1-.057.038h-.047a.332.332,0,0,1-.071-.1l-.209-.413h0c-.109-.242-.185-.437-.233-.579l-.176-.441h.978a4.04,4.04,0,0,1,.7,0l.028.028h0l-.076.166-.047.109a.627.627,0,0,0-.047.142l.114.076h.052a.266.266,0,0,0,0-.038,3.426,3.426,0,0,1,.2-.366c.076-.109.171-.252.309-.432a1.367,1.367,0,0,1,.138-.171v-.028l.109-.085h0a1.514,1.514,0,0,0,.166-.29Z" transform="translate(-1.481 -1.205)" fill="#fff" fill-rule="evenodd"/>
      </g>
      <g id="Group_4" data-name="Group 4" transform="translate(38.949 0.854)">
        <path id="Path_44" data-name="Path 44" d="M82.785,9.122c-.166-.071-.195-.123-.195-.351,0-.57.038-1.191.052-1.358s.038-.266.123-.266.1.09.1.176a2.179,2.179,0,0,0,.095.527,1.424,1.424,0,0,0,1.481,1.044,1.258,1.258,0,0,0,1.386-1.177c0-.508-.157-.983-1.016-1.657l-.475-.37C83.2,4.8,82.785,4.076,82.785,3.235c0-1.139.949-1.956,2.373-1.956a5.093,5.093,0,0,1,1.377.176c.09.024.142.052.142.128s-.043.432-.043,1.239c0,.228-.028.309-.114.309s-.1-.062-.1-.185a1.263,1.263,0,0,0-.271-.684,1.315,1.315,0,0,0-1.087-.5,1.088,1.088,0,0,0-1.234,1.063c0,.475.237.84,1.1,1.491l.29.218c1.253.949,1.7,1.652,1.7,2.635a2.079,2.079,0,0,1-.949,1.8,2.986,2.986,0,0,1-1.647.427,3.622,3.622,0,0,1-1.533-.271Z" transform="translate(-82.334 -1.209)" fill="#5d2568"/>
        <path id="Path_45" data-name="Path 45" d="M101.461,4.88a.062.062,0,0,0,.062-.071V2.4c0-.332-.1-.517-.446-.589a1.856,1.856,0,0,0-.4-.033c-.114,0-.176,0-.176-.095s.071-.09.218-.09c.555,0,1.21.028,1.491.028s.9-.028,1.3-.028c.147,0,.218,0,.218.09s-.062.095-.185.095a1.629,1.629,0,0,0-.3.033c-.275.047-.361.228-.38.589s0,.622,0,2.193V6.408c0,.949,0,1.771.047,2.217.033.29.095.513.4.555a3.879,3.879,0,0,0,.527.043c.114,0,.166.028.166.081s-.081.1-.2.1c-.674,0-1.324-.028-1.614-.028s-.892.028-1.291.028c-.147,0-.218-.028-.218-.1s.038-.081.166-.081a1.524,1.524,0,0,0,.37-.043c.209-.043.256-.266.3-.57.052-.432.052-1.248.052-2.2V5.5a.062.062,0,0,0-.062-.062H97.55a.057.057,0,0,0-.062.062v.911c0,.949,0,1.771.047,2.217.033.29.095.513.408.555a3.76,3.76,0,0,0,.527.043c.114,0,.161.028.161.081s-.081.1-.2.1c-.674,0-1.324-.028-1.614-.028s-.888.028-1.305.028c-.133,0-.2-.028-.2-.1s.043-.081.166-.081a1.5,1.5,0,0,0,.37-.043c.209-.043.261-.266.3-.57.052-.432.052-1.248.052-2.2V2.4c0-.332-.1-.517-.446-.589a1.856,1.856,0,0,0-.46-.024c-.114,0-.176,0-.176-.095s.071-.09.218-.09c.56,0,1.21.028,1.491.028s.9-.028,1.3-.028c.147,0,.218,0,.218.09s-.062.095-.185.095a1.543,1.543,0,0,0-.3.033c-.28.047-.366.228-.385.589s0,.622,0,2.193v.218a.062.062,0,0,0,.062.071Z" transform="translate(-88.91 -1.372)" fill="#5d2568"/>
        <path id="Path_46" data-name="Path 46" d="M116.722,6.466c-.052,0-.071.024-.09.085l-.56,1.476a2.012,2.012,0,0,0-.157.631c0,.19.095.323.413.323h.157c.123,0,.157,0,.157.081s-.062.1-.176.1c-.332,0-.778-.028-1.1-.028-.114,0-.684.028-1.22.028-.138,0-.2,0-.2-.1s.043-.081.123-.081h.323c.475-.066.674-.418.878-.949l2.6-6.489c.123-.3.185-.413.29-.413s.157.095.261.332c.247.565,1.9,4.785,2.563,6.361.394.949.693,1.073.911,1.125a2.074,2.074,0,0,0,.432.043c.085,0,.133,0,.133.081s-.09.1-.475.1h-1.951c-.19,0-.313,0-.313-.085s.043-.081.147-.09a.171.171,0,0,0,.09-.237l-.826-2.193a.1.1,0,0,0-.1-.076Zm2.112-.517c.052,0,.062-.028.052-.062l-.949-2.554c0-.043,0-.09-.047-.09s-.052.047-.066.09l-.949,2.544c0,.043,0,.071.043.071Z" transform="translate(-98.807 -1.13)" fill="#5d2568"/>
        <path id="Path_47" data-name="Path 47" d="M133.465,4.59V2.4c0-.332-.1-.517-.446-.589a1.856,1.856,0,0,0-.4-.033c-.114,0-.176,0-.176-.095s.076-.09.228-.09c.551,0,1.2.028,1.491.028.422,0,1.025-.028,1.5-.028a2.391,2.391,0,0,1,1.9.589,1.8,1.8,0,0,1,.517,1.229,2.435,2.435,0,0,1-2.521,2.506,1.125,1.125,0,0,1-.218,0c-.047,0-.123,0-.123-.09s.076-.114.29-.114A1.628,1.628,0,0,0,136.888,4a1.975,1.975,0,0,0-.608-1.548,1.543,1.543,0,0,0-1.035-.4,1.566,1.566,0,0,0-.4.038c-.052.024-.085.085-.085.2V6.422c0,.949,0,1.771.052,2.217.033.29.095.513.4.555a3.878,3.878,0,0,0,.527.043c.114,0,.166.028.166.081s-.081.1-.195.1c-.684,0-1.334-.028-1.6-.028s-.888.028-1.3.028c-.138,0-.209-.028-.209-.1s.043-.081.166-.081a1.467,1.467,0,0,0,.37-.043c.209-.043.261-.266.3-.57.047-.432.047-1.248.047-2.2Z" transform="translate(-108.52 -1.372)" fill="#5d2568"/>
        <path id="Path_48" data-name="Path 48" d="M148.3,4.588c0-1.571,0-1.861-.024-2.193s-.123-.527-.351-.579a1.363,1.363,0,0,0-.37-.043c-.1,0-.166,0-.166-.1s.081-.081.247-.081c.394,0,1.044.028,1.348.028s.869-.028,1.258-.028c.138,0,.218,0,.218.081s-.062.1-.166.1a1.524,1.524,0,0,0-.309.033c-.28.047-.361.228-.385.589s0,.622,0,2.193V6.406c0,1.006,0,1.823.043,2.264.028.28.1.475.413.508a3.76,3.76,0,0,0,.527.043c.114,0,.166.028.166.081s-.085.1-.2.1c-.679,0-1.334-.028-1.614-.028s-.888.028-1.3.028c-.133,0-.209-.028-.209-.1s.043-.081.166-.081a1.538,1.538,0,0,0,.375-.043c.2-.043.266-.218.3-.517.052-.432.052-1.248.052-2.255Z" transform="translate(-116.373 -1.369)" fill="#5d2568"/>
        <path id="Path_49" data-name="Path 49" d="M158.83,7.809c0,.807.157,1.073.361,1.149a1.657,1.657,0,0,0,.536.071c.114,0,.176,0,.176.081s-.09.1-.237.1c-.669,0-1.082-.028-1.282-.028-.09,0-.579.028-1.116.028-.138,0-.228,0-.228-.1s.062-.081.166-.081a1.794,1.794,0,0,0,.475-.052c.266-.081.309-.385.318-1.282l.095-6.124c0-.209.029-.351.133-.351s.209.133.384.318,1.695,1.823,3.2,3.323c.707.7,2.1,2.193,2.279,2.373h.047l-.1-4.647c0-.631-.1-.826-.351-.949a1.709,1.709,0,0,0-.555-.047c-.123,0-.166-.028-.166-.095s.114-.09.271-.09c.536,0,1.035.028,1.253.028.114,0,.5-.028,1.011-.028.138,0,.237,0,.237.09s-.062.095-.185.095a1.04,1.04,0,0,0-.309.033c-.29.081-.375.3-.385.878l-.114,6.527c0,.228-.043.318-.133.318a.708.708,0,0,1-.351-.228c-.65-.617-1.975-1.975-3.052-3.038s-2.288-2.421-2.464-2.592h-.028Z" transform="translate(-121.443 -1.177)" fill="#5d2568"/>
        <path id="Path_50" data-name="Path 50" d="M185.464,8.556c0,.28,0,.3-.133.375a5.862,5.862,0,0,1-2.492.475c-2.535,0-4.78-1.2-4.78-4.059a3.869,3.869,0,0,1,1.8-3.38,5.027,5.027,0,0,1,2.782-.674,12.935,12.935,0,0,1,1.832.166,6.381,6.381,0,0,0,.816.114c.123,0,.147.052.147.123a13.34,13.34,0,0,0-.076,1.7c0,.166-.028.214-.114.214s-.09-.047-.1-.133a1.467,1.467,0,0,0-.356-.859,3.323,3.323,0,0,0-2.3-.807,3,3,0,0,0-2.051.641,3.065,3.065,0,0,0-.949,2.535,3.6,3.6,0,0,0,3.6,3.893,2.274,2.274,0,0,0,.878-.133.37.37,0,0,0,.2-.385V6.177a.512.512,0,0,0-.441-.589,1.9,1.9,0,0,0-.4-.033c-.095,0-.157,0-.157-.081s.071-.1.218-.1c.536,0,1.187.033,1.5.033s.869-.033,1.21-.033c.133,0,.2,0,.2.1s-.062.081-.133.081a1.424,1.424,0,0,0-.28.033c-.28.052-.384.228-.394.589s0,.726,0,1.239Z" transform="translate(-132.483 -1.212)" fill="#5d2568"/>
        <path id="Path_51" data-name="Path 51" d="M84.371,28.537c0,.992,0,1.766.052,2.2.033.3.095.527.4.57a4.853,4.853,0,0,0,.522.028c.138,0,.176.028.176.081s-.071.1-.228.1c-.65,0-1.3-.033-1.571-.033s-.921.033-1.315.033c-.142,0-.214,0-.214-.1s.038-.081.152-.081a1.818,1.818,0,0,0,.375-.043c.2-.043.256-.271.3-.57.052-.437.052-1.21.052-2.2V24.507a.506.506,0,0,0-.446-.589,2.374,2.374,0,0,0-.4-.028c-.1,0-.176-.024-.176-.085s.081-.1.237-.1h4.22a1.771,1.771,0,0,0,.422-.043c.062,0,.114-.062.166-.062s.071.043.071.095-.047.195-.081.475c0,.1-.033.712-.052.835s-.028.147-.1.147-.09-.052-.1-.166a.949.949,0,0,0-.066-.394.745.745,0,0,0-.679-.309l-1.619-.019c-.062,0-.095.033-.095.147v2.582c0,.062,0,.095.076.095h1.8a.536.536,0,0,0,.441-.19c.052-.062.076-.1.138-.1s.062.028.062.09-.052.323-.085.641c0,.209-.038.684-.038.755s0,.2-.1.2-.085-.071-.085-.147a1.077,1.077,0,0,0-.062-.318.6.6,0,0,0-.527-.375,14.715,14.715,0,0,0-1.538-.057c-.052,0-.076,0-.076.09Z" transform="translate(-82.05 -12.934)" fill="#5d2568"/>
        <path id="Path_52" data-name="Path 52" d="M96.121,26.815V24.622c0-.332-.1-.513-.441-.589a2.373,2.373,0,0,0-.4-.028c-.114,0-.176-.024-.176-.095s.071-.09.228-.09c.546,0,1.2.028,1.51.028s.9-.028,1.272-.028c.152,0,.228,0,.228.09s-.066.095-.166.095a1.671,1.671,0,0,0-.3.028c-.28.052-.366.228-.385.589s0,.622,0,2.193v1.448c0,1.5.3,2.131.8,2.544a1.922,1.922,0,0,0,1.3.427,2.041,2.041,0,0,0,1.424-.56,3.579,3.579,0,0,0,.6-2.563V24.622a.506.506,0,0,0-.446-.589,2.231,2.231,0,0,0-.375-.028c-.109,0-.176-.024-.176-.095s.076-.09.218-.09c.527,0,1.182.028,1.191.028.123,0,.774-.028,1.177-.028.147,0,.218,0,.218.09s-.062.095-.185.095a1.766,1.766,0,0,0-.3.028c-.275.052-.361.228-.38.589s0,.622,0,2.193v1.111a3.9,3.9,0,0,1-.983,3.109,3.1,3.1,0,0,1-2.241.745,3.323,3.323,0,0,1-2.293-.712,3.374,3.374,0,0,1-.921-2.739Z" transform="translate(-88.905 -13.049)" fill="#5d2568"/>
        <path id="Path_53" data-name="Path 53" d="M116.839,24.2l-1.543.038c-.6.024-.85.071-1,.3a1.32,1.32,0,0,0-.18.366.11.11,0,0,1-.114.123c-.066,0-.09-.052-.09-.166s.195-1.106.218-1.191.062-.195.123-.195a2.2,2.2,0,0,0,.446.123,10.1,10.1,0,0,0,1.03.052h4.1a4.576,4.576,0,0,0,.717-.052c.152-.028.237-.052.275-.052s.085.062.085.218-.033.949-.033,1.2c0,.1-.028.166-.09.166s-.1-.052-.114-.209V24.8c-.024-.271-.3-.56-1.225-.579l-1.31-.028v4.272c0,.949,0,1.766.052,2.212.028.29.09.517.4.56a4.642,4.642,0,0,0,.527.043c.114,0,.166.028.166.081s-.085.1-.2.1c-.679,0-1.334-.033-1.623-.033s-.888.033-1.3.033c-.138,0-.209-.033-.209-.1s.043-.081.166-.081a1.723,1.723,0,0,0,.37-.043c.209-.043.271-.271.3-.57.052-.437.052-1.253.052-2.2Z" transform="translate(-98.786 -12.865)" fill="#5d2568"/>
        <path id="Path_54" data-name="Path 54" d="M131.005,26.815V24.622a.506.506,0,0,0-.446-.589,2.278,2.278,0,0,0-.4-.028c-.114,0-.176-.024-.176-.095s.071-.09.228-.09c.551,0,1.2.028,1.51.028s.9-.028,1.272-.028c.157,0,.228,0,.228.09s-.062.095-.166.095a1.671,1.671,0,0,0-.3.028c-.28.052-.361.228-.38.589s0,.622,0,2.193v1.448c0,1.5.3,2.131.807,2.544a1.9,1.9,0,0,0,1.291.427,2.032,2.032,0,0,0,1.424-.56,3.556,3.556,0,0,0,.6-2.563V24.622a.506.506,0,0,0-.441-.589,2.231,2.231,0,0,0-.375-.028c-.114,0-.176-.024-.176-.095s.071-.09.218-.09c.527,0,1.177.028,1.187.028.128,0,.779-.028,1.182-.028.142,0,.214,0,.214.09s-.062.095-.185.095a1.671,1.671,0,0,0-.3.028c-.28.052-.361.228-.385.589s0,.622,0,2.193v1.111a3.9,3.9,0,0,1-.983,3.109,3.081,3.081,0,0,1-2.15.745,3.323,3.323,0,0,1-2.3-.712,3.391,3.391,0,0,1-.921-2.739Z" transform="translate(-107.228 -13.049)" fill="#5d2568"/>
        <path id="Path_55" data-name="Path 55" d="M150.935,26.807V24.613a.506.506,0,0,0-.446-.589,2.279,2.279,0,0,0-.4-.028c-.114,0-.176-.024-.176-.095s.076-.09.228-.09c.551,0,1.2.028,1.424.028.351,0,1.135-.028,1.457-.028a3.323,3.323,0,0,1,1.9.441,1.8,1.8,0,0,1,.7,1.424,2.894,2.894,0,0,1-1.367,2.317c.921,1.158,1.638,2.079,2.245,2.72a2.093,2.093,0,0,0,1.158.7,1.865,1.865,0,0,0,.29.033c.085,0,.123.028.123.081s-.071.1-.195.1h-.983a2.079,2.079,0,0,1-1.106-.2,4.942,4.942,0,0,1-1.424-1.519c-.413-.57-.888-1.272-1.021-1.424a.214.214,0,0,0-.185-.071h-.9c-.052,0-.081,0-.081.081v.142c0,.949,0,1.775.047,2.212.033.3.095.527.4.57.157,0,.385.043.508.043s.123.028.123.081-.071.1-.2.1c-.6,0-1.367-.033-1.524-.033s-.845.033-1.258.033c-.138,0-.209-.033-.209-.1s.043-.081.166-.081a1.723,1.723,0,0,0,.37-.043c.209-.043.261-.271.3-.57.052-.437.052-1.253.052-2.2Zm1.225.821c0,.109,0,.152.09.185a2.777,2.777,0,0,0,.788.1,1.006,1.006,0,0,0,.731-.18,1.8,1.8,0,0,0,.612-1.548,1.659,1.659,0,0,0-1.581-1.9,2.16,2.16,0,0,0-.551.043c-.071,0-.09.062-.09.142Z" transform="translate(-117.697 -13.04)" fill="#5d2568"/>
        <path id="Path_56" data-name="Path 56" d="M167.839,26.7c0-1.571,0-1.861-.024-2.193s-.1-.513-.446-.589a2.26,2.26,0,0,0-.4-.028c-.114,0-.18-.024-.18-.095s.076-.09.228-.09H171.1a4.376,4.376,0,0,0,.446-.062.949.949,0,0,1,.166-.043c.047,0,.062.043.062.095a6.688,6.688,0,0,0-.085.669c0,.1-.028.56-.052.684a.1.1,0,0,1-.1.114c-.076,0-.09-.052-.09-.142a1.092,1.092,0,0,0-.062-.375c-.076-.185-.176-.309-.693-.37-.176,0-1.263-.043-1.472-.043-.052,0-.071.033-.071.1V26.97c0,.071,0,.114.071.114h1.657a.568.568,0,0,0,.475-.157c.071-.1.109-.133.161-.133s.076,0,.076.081-.043.228-.085.755c0,.209-.043.622-.043.693s0,.2-.09.2a.085.085,0,0,1-.095-.095,3.036,3.036,0,0,0-.038-.375c-.052-.2-.2-.361-.579-.4-.2,0-1.225-.028-1.472-.028-.052,0-.062.043-.062.1v2.416c0,.712.185.869,1.244.869a2.616,2.616,0,0,0,.949-.123c.271-.128.394-.342.475-.769,0-.114.043-.152.114-.152s.085.081.085.185a8.849,8.849,0,0,1-.133,1.149c-.076.266-.166.266-.56.266-.778,0-1.343,0-1.79-.028s-.764-.033-1.078-.033h-1.3c-.2,0-.209-.033-.209-.1s.043-.081.166-.081a1.723,1.723,0,0,0,.37-.043c.209-.043.261-.271.3-.57a14.307,14.307,0,0,0,.085-2.169Z" transform="translate(-126.564 -12.934)" fill="#5d2568"/>
        <path id="Path_57" data-name="Path 57" d="M181.779,31.322c-.166-.076-.2-.128-.2-.351,0-.57.043-1.191.052-1.358s.043-.271.123-.271.1.095.1.176a2.174,2.174,0,0,0,.095.532,1.424,1.424,0,0,0,1.476,1.044,1.253,1.253,0,0,0,1.386-1.182c0-.5-.152-.983-1.011-1.652l-.475-.375a3.069,3.069,0,0,1-1.533-2.449c0-1.139.949-1.956,2.374-1.956a5.031,5.031,0,0,1,1.377.176c.095,0,.147.052.147.123s-.043.437-.043,1.244c0,.228-.028.309-.114.309s-.1-.062-.1-.185a1.272,1.272,0,0,0-.266-.684,1.32,1.32,0,0,0-1.13-.508,1.087,1.087,0,0,0-1.229,1.068c0,.475.237.835,1.1,1.486l.29.218c1.253.949,1.695,1.657,1.695,2.639a2.084,2.084,0,0,1-.973,1.8,2.976,2.976,0,0,1-1.642.422A3.622,3.622,0,0,1,181.779,31.322Z" transform="translate(-134.333 -12.87)" fill="#5d2568"/>
        <path id="Path_58" data-name="Path 58" d="M83,50.017v-3.09a1.634,1.634,0,0,0,0-.218.783.783,0,0,0-.081-.328.418.418,0,0,0-.28-.152.5.5,0,0,0-.138,0h-.147c-.047,0-.071,0-.071-.052s.047-.066.138-.066h1.946a5.088,5.088,0,0,1,.807.062,1.453,1.453,0,0,1,.916.475,1.774,1.774,0,0,1,.19.247,1.661,1.661,0,0,1,.152.332,1.22,1.22,0,0,1,.062.4,2.193,2.193,0,0,1-.228.949,3.366,3.366,0,0,1-.793.973l.949,1.215c.285.366.555.684.8.949a1.984,1.984,0,0,0,.608.475,1.8,1.8,0,0,0,.422.133,1.861,1.861,0,0,0,.2.024h.128c.052,0,.076,0,.076.047a.057.057,0,0,1-.043.057.66.66,0,0,1-.161,0h-.608a3.223,3.223,0,0,1-.546-.033.949.949,0,0,1-.356-.123,1.737,1.737,0,0,1-.522-.451c-.171-.209-.375-.475-.617-.793-.09-.114-.18-.237-.271-.361l-.261-.361c-.081-.109-.157-.214-.228-.3l-.166-.228a.152.152,0,0,0-.109-.047H83.733c-.043,0-.062,0-.062.066V51.1a7.121,7.121,0,0,0,.038.75.95.95,0,0,0,.076.313.3.3,0,0,0,.252.152h.38c.047,0,.071,0,.071.047s-.047.066-.138.066H82.522c-.09,0-.133,0-.133-.066s0-.047.066-.047h.256a.237.237,0,0,0,.171-.152,1.278,1.278,0,0,0,.071-.313,6.026,6.026,0,0,0,.038-.75C83,50.8,83,50.42,83,50.017Zm.674-3.484V49.29a.1.1,0,0,0,.062.1.949.949,0,0,0,.347.1,3.907,3.907,0,0,0,.536.038,1.552,1.552,0,0,0,.323-.033.764.764,0,0,0,.309-.128,1.111,1.111,0,0,0,.37-.475,1.994,1.994,0,0,0,.147-.816,1.818,1.818,0,0,0-.389-1.239A1.339,1.339,0,0,0,84.3,46.39H83.96l-.223.033A.1.1,0,0,0,83.671,46.532Z" transform="translate(-82.171 -24.758)" fill="#5d2568"/>
        <path id="Path_59" data-name="Path 59" d="M96.757,49.939V46.631a.712.712,0,0,0-.085-.328.4.4,0,0,0-.275-.152.513.513,0,0,0-.142,0h-.147c-.043,0-.066,0-.066-.052s.043-.066.133-.066h2.886a3.229,3.229,0,0,0,.366-.038.214.214,0,0,0,.057-.028.133.133,0,0,1,.062,0s.033,0,.033.076a.475.475,0,0,1-.028.128,2.61,2.61,0,0,0-.043.266v.441a.522.522,0,0,1,0,.114v.066c0,.019,0,.028-.038.028s-.066-.038-.066-.109v-.138a.475.475,0,0,0-.043-.166.37.37,0,0,0-.152-.171,1.04,1.04,0,0,0-.446-.114,1.087,1.087,0,0,0-.228,0H97.516c-.038,0-.052.028-.052.085V48.8c0,.057,0,.085.052.085h1.339l.247-.033a.3.3,0,0,0,.152-.085c.062-.076.1-.109.123-.109s.043,0,.043.066a1,1,0,0,1,0,.152,1.842,1.842,0,0,0-.043.318v.456a.685.685,0,0,0,0,.085.777.777,0,0,1,0,.1.05.05,0,0,1-.047.057c-.024,0-.062,0-.062-.076a1.242,1.242,0,0,0,0-.133.514.514,0,0,0-.138-.328.57.57,0,0,0-.332-.114H97.592c-.038,0-.057,0-.057.062v2.179a1.363,1.363,0,0,0,.047.351.347.347,0,0,0,.142.209.65.65,0,0,0,.29.1,4.466,4.466,0,0,0,.475,0h.4a1.135,1.135,0,0,0,.408-.081.513.513,0,0,0,.252-.2,1.154,1.154,0,0,0,.128-.4c0-.081.038-.123.076-.123a.038.038,0,0,1,.043.043.475.475,0,0,1,0,.081V51.6a.635.635,0,0,1-.033.237c-.033.09,0,.171-.033.256a1.069,1.069,0,0,1-.033.195.58.58,0,0,1-.047.133.161.161,0,0,1-.076.062.475.475,0,0,1-.128.028H96.334c-.09,0-.133,0-.133-.066s0-.047.066-.047h.252a.237.237,0,0,0,.176-.152,1.936,1.936,0,0,0,.071-.313c0-.18.033-.432.038-.75S96.757,50.343,96.757,49.939Z" transform="translate(-89.399 -24.681)" fill="#5d2568"/>
        <path id="Path_60" data-name="Path 60" d="M108.618,52.412a3.38,3.38,0,0,1-.584-.047,2.15,2.15,0,0,1-.546-.171.2.2,0,0,1-.114-.095,1.125,1.125,0,0,1,0-.223c0-.214,0-.4,0-.56a1.012,1.012,0,0,1,.028-.337c.028-.066.028-.133.066-.133s.057.028.057.09v.142a1.226,1.226,0,0,0,0,.171,1.149,1.149,0,0,0,.166.4.987.987,0,0,0,.294.266,1.372,1.372,0,0,0,.375.147,1.965,1.965,0,0,0,.413.043,1.329,1.329,0,0,0,.532-.1,1.139,1.139,0,0,0,.375-.256,1.049,1.049,0,0,0,.223-.361,1.106,1.106,0,0,0,.076-.4,1.538,1.538,0,0,0-.052-.4,1.315,1.315,0,0,0-.161-.356,1.975,1.975,0,0,0-.3-.351,5.416,5.416,0,0,0-.475-.413l-.375-.309a5.517,5.517,0,0,1-.551-.517,2.416,2.416,0,0,1-.332-.475,1.775,1.775,0,0,1-.171-.432,2.1,2.1,0,0,1-.047-.427,1.557,1.557,0,0,1,.123-.617,1.348,1.348,0,0,1,.351-.475,1.6,1.6,0,0,1,.551-.313,2.259,2.259,0,0,1,.722-.109h.437a2.43,2.43,0,0,1,.351.066l.18.033h.114q.085,0,.085.057v.892c0,.133,0,.195-.062.195a.052.052,0,0,1-.052-.028v-.081a.551.551,0,0,0-.038-.214.66.66,0,0,0-.071-.209l-.076-.109a.769.769,0,0,0-.18-.152,1.343,1.343,0,0,0-.318-.128,1.723,1.723,0,0,0-.475-.057,1.1,1.1,0,0,0-.741.256.907.907,0,0,0-.3.722,1.111,1.111,0,0,0,.047.337,1.04,1.04,0,0,0,.161.313,2.549,2.549,0,0,0,.318.347c.133.123.3.266.5.422l.237.185a5.654,5.654,0,0,1,.6.574,2.516,2.516,0,0,1,.38.475,1.457,1.457,0,0,1,.19.475,2.34,2.34,0,0,1,.052.475,2,2,0,0,1-.028.3,1.7,1.7,0,0,1-.109.37,2.26,2.26,0,0,1-.218.385,1.661,1.661,0,0,1-.361.342,1.709,1.709,0,0,1-.6.271A2.673,2.673,0,0,1,108.618,52.412Z" transform="translate(-95.35 -24.59)" fill="#5d2568"/>
        <path id="Path_61" data-name="Path 61" d="M123.544,48.531V51.1a7.119,7.119,0,0,0,.038.75.949.949,0,0,0,.076.313.3.3,0,0,0,.252.152h.38c.047,0,.071,0,.071.047s-.047.066-.138.066h-1.87c-.09,0-.133,0-.133-.066s0-.047.066-.047h.252a.237.237,0,0,0,.176-.152,1.937,1.937,0,0,0,.071-.313,7.119,7.119,0,0,0,.038-.75v-1.97c0-.033,0-.047-.052-.047H119.2c-.033,0-.052,0-.052.047V51.1a7.122,7.122,0,0,0,.038.75.949.949,0,0,0,.076.313.3.3,0,0,0,.252.152h.38c.047,0,.066,0,.066.047s-.043.066-.133.066h-1.866c-.09,0-.133,0-.133-.066s0-.047.066-.047h.252a.237.237,0,0,0,.176-.152,1.935,1.935,0,0,0,.071-.313,7.121,7.121,0,0,0,.038-.75V46.708a.712.712,0,0,0-.085-.328.4.4,0,0,0-.275-.152.513.513,0,0,0-.142,0h-.147c-.043,0-.066,0-.066-.052s.047-.066.138-.066h1.78c.085,0,.133,0,.133.066s0,.052-.066.052h-.214a.309.309,0,0,0-.228.147.807.807,0,0,0-.081.332v2c0,.033,0,.047.052.047H122.8c.033,0,.052,0,.052-.047v-2a.783.783,0,0,0-.081-.328.418.418,0,0,0-.28-.152.5.5,0,0,0-.138,0h-.147c-.047,0-.071,0-.071-.052s.047-.066.138-.066h1.747c.09,0,.133,0,.133.066s-.024.052-.066.052h-.214a.318.318,0,0,0-.228.147.807.807,0,0,0-.081.332v1.823Z" transform="translate(-100.782 -24.758)" fill="#5d2568"/>
        <path id="Path_62" data-name="Path 62" d="M134.03,51.4l1.9-5.222a2.539,2.539,0,0,1,.114-.271.09.09,0,0,1,.076-.057.1.1,0,0,1,.076.057,2.37,2.37,0,0,0,.109.247,2.592,2.592,0,0,0,.152.4c.081.209.18.475.3.779s.242.641.384,1.006.28.726.418,1.087.266.693.394,1.016.233.589.318.8a2.975,2.975,0,0,0,.214.475,2.024,2.024,0,0,0,.195.275.527.527,0,0,0,.171.147A.717.717,0,0,0,139,52.2a.622.622,0,0,0,.18.043h.157c.057,0,.081,0,.081.047a.057.057,0,0,1-.047.057.475.475,0,0,1-.119,0h-1.51c-.047,0-.066,0-.066-.047s0-.047.057-.057a.109.109,0,0,0,.066-.071.19.19,0,0,0,0-.157l-.788-2.074a.076.076,0,0,0-.076-.052h-1.813a.1.1,0,0,0-.085.066l-.5,1.5a1.672,1.672,0,0,0-.119.565.2.2,0,0,0,.1.185.413.413,0,0,0,.218.062h.081c.057,0,.085,0,.085.047s-.043.066-.128.066h-1.609c-.109,0-.161,0-.161-.066s.028-.047.076-.047h.247a.622.622,0,0,0,.441-.256A2.453,2.453,0,0,0,134.03,51.4Zm1.182-1.866h1.609c.033,0,.047,0,.033-.057l-.8-2.279q-.071-.185-.128,0l-.745,2.279Q135.165,49.534,135.212,49.534Z" transform="translate(-108.814 -24.622)" fill="#5d2568"/>
        <path id="Path_63" data-name="Path 63" d="M148.61,50.016V46.708a.854.854,0,0,0-.085-.328.418.418,0,0,0-.28-.152.5.5,0,0,0-.138,0h-.18c-.047,0-.066,0-.066-.052s.043-.066.133-.066h2.036a3.352,3.352,0,0,1,.669.057,2.849,2.849,0,0,1,.475.138.982.982,0,0,1,.285.157,1.291,1.291,0,0,1,.152.128,1.552,1.552,0,0,1,.285.4,1.3,1.3,0,0,1,.138.6,2.084,2.084,0,0,1-.157.816,1.865,1.865,0,0,1-.432.636,1.842,1.842,0,0,1-.66.408,2.222,2.222,0,0,1-.826.147h-.176a.152.152,0,0,1-.066,0,.047.047,0,0,1-.028-.047.057.057,0,0,1,.047-.062.717.717,0,0,1,.18,0,1.543,1.543,0,0,0,.574-.1,1.452,1.452,0,0,0,.475-.29,1.424,1.424,0,0,0,.309-.437,1.287,1.287,0,0,0,.114-.541v-.256a1.87,1.87,0,0,0-.062-.328,1.7,1.7,0,0,0-.138-.361,1.367,1.367,0,0,0-.261-.356,1.339,1.339,0,0,0-.342-.256,1.505,1.505,0,0,0-.328-.128,1.31,1.31,0,0,0-.285-.038h-.2a1.424,1.424,0,0,0-.209,0,.541.541,0,0,0-.157.038c-.043,0-.066.071-.066.161v4.548a6.022,6.022,0,0,0,.01.7.949.949,0,0,0,.076.313.3.3,0,0,0,.252.152h.38c.047,0,.066,0,.066.047s-.043.066-.133.066h-1.847c-.09,0-.138,0-.138-.066s.024-.047.066-.047h.256a.233.233,0,0,0,.171-.152,1.277,1.277,0,0,0,.071-.313,6.026,6.026,0,0,0,.038-.75C148.61,50.8,148.61,50.42,148.61,50.016Z" transform="translate(-116.62 -24.758)" fill="#5d2568"/>
        <path id="Path_64" data-name="Path 64" d="M160.985,48.51v2.568a4.149,4.149,0,0,0,.038.75,1.082,1.082,0,0,0,.076.313.313.313,0,0,0,.256.152h.38c.043,0,.066,0,.066.047s-.047.066-.138.066h-1.832c-.09,0-.138,0-.138-.066s.024-.047.066-.047h.256a.233.233,0,0,0,.171-.152,1.276,1.276,0,0,0,.071-.313,6.026,6.026,0,0,0,.038-.75V46.687c0-.275-.114-.432-.29-.475a.636.636,0,0,0-.142-.024.612.612,0,0,0-.119,0c-.043,0-.066,0-.066-.052s.043-.066.133-.066h1.68c.09,0,.133,0,.133.066s0,.052-.066.052h-.209a.323.323,0,0,0-.233.147.807.807,0,0,0-.081.332v1.823Z" transform="translate(-122.829 -24.737)" fill="#5d2568"/>
        <path id="Path_65" data-name="Path 65" d="M168.194,47.141l.114,4.04a1.91,1.91,0,0,0,.028.432,1.638,1.638,0,0,0,.057.29.418.418,0,0,0,.1.19.309.309,0,0,0,.142.085.992.992,0,0,0,.242.043h.18c.043,0,.066,0,.066.047s-.052.066-.152.066h-1.7c-.09,0-.133,0-.133-.066s0-.047.066-.047h.152a.679.679,0,0,0,.195-.043.3.3,0,0,0,.2-.271,4.386,4.386,0,0,0,.047-.8V46.272a1.7,1.7,0,0,1,0-.332c0-.062.038-.09.071-.09s.081.033.142.1.109.123.152.171.133.138.294.318l.612.66.845.873c.3.332.622.674.949,1.021.2.228.418.475.627.684l.593.65.475.536c.142.157.247.266.313.332l-.09-4.272a2.279,2.279,0,0,0-.071-.579.347.347,0,0,0-.261-.218,1.3,1.3,0,0,0-.237-.033,1.473,1.473,0,0,0-.176,0c-.043,0-.066,0-.066-.062s.057-.057.171-.057h1.614c.195,0,.152,0,.152.057s-.028.062-.09.062h-.081a.789.789,0,0,0-.123,0,.313.313,0,0,0-.261.209,2.089,2.089,0,0,0-.047.541v5.274a1.227,1.227,0,0,1,0,.176.152.152,0,0,1,0,.076.038.038,0,0,1-.038,0,.128.128,0,0,1-.062,0,.475.475,0,0,1-.109-.076l-.171-.166-.275-.275-.256-.256c-.147-.147-.332-.332-.546-.555l-.688-.722-.769-.755-.722-.793-.646-.712-.532-.56Z" transform="translate(-126.748 -24.622)" fill="#5d2568"/>
        <path id="Path_66" data-name="Path 66" d="M189.032,51.633V49.8a.707.707,0,0,0-.052-.242.271.271,0,0,0-.114-.138.821.821,0,0,0-.2-.081.513.513,0,0,0-.142,0h-.147c-.043,0-.066,0-.066-.052s.047-.066.138-.066h1.78c.09,0,.133.024.133.066s-.024.052-.066.052h-.214a.332.332,0,0,0-.233.147.906.906,0,0,0-.076.337,3.754,3.754,0,0,0,0,.4V51.88a.418.418,0,0,1,0,.123.09.09,0,0,1-.033.066l-.057.038a2.235,2.235,0,0,1-.437.185,4.387,4.387,0,0,1-.475.114,4.221,4.221,0,0,1-.475.066h-.408a5.174,5.174,0,0,1-.574-.024,4.624,4.624,0,0,1-.7-.119,3.864,3.864,0,0,1-.759-.275,3.2,3.2,0,0,1-.741-.475,2.523,2.523,0,0,1-.375-.418,3.137,3.137,0,0,1-.318-.555,3.459,3.459,0,0,1-.223-.669,3.322,3.322,0,0,1-.085-.76,3.7,3.7,0,0,1,.114-.949,3.462,3.462,0,0,1,.309-.778,3,3,0,0,1,.451-.617,3.042,3.042,0,0,1,.536-.441,3.114,3.114,0,0,1,.579-.285,4.115,4.115,0,0,1,.584-.157,3.931,3.931,0,0,1,.56-.071h.926l.38.043.313.047.19.033a2.27,2.27,0,0,0,.332.057l.351.028q.071,0,.085.028a.085.085,0,0,1,0,.043v.119a.782.782,0,0,1-.024.214,1.629,1.629,0,0,0,0,.342v.527a.441.441,0,0,1,0,.138.066.066,0,0,1-.062.038q-.043,0-.057-.128a1.955,1.955,0,0,0-.047-.247,1.03,1.03,0,0,0-.133-.309.9.9,0,0,0-.242-.242,2.013,2.013,0,0,0-.418-.218,3.21,3.21,0,0,0-.584-.161,3.959,3.959,0,0,0-.741-.062H187.1a2.558,2.558,0,0,0-.446.071,2.112,2.112,0,0,0-.475.166,2.492,2.492,0,0,0-.475.3,2.112,2.112,0,0,0-.693.85,3.323,3.323,0,0,0-.233,1.3,3.49,3.49,0,0,0,.095.826,3.906,3.906,0,0,0,.237.679,3.18,3.18,0,0,0,.294.513,2.8,2.8,0,0,0,.271.323,3.1,3.1,0,0,0,1.068.693,3.294,3.294,0,0,0,1.144.209h.247a2.525,2.525,0,0,0,.266-.028,1.9,1.9,0,0,0,.247-.057.731.731,0,0,0,.2-.081.313.313,0,0,0,.185-.3Z" transform="translate(-135.662 -24.637)" fill="#5d2568"/>
        <path id="Path_67" data-name="Path 67" d="M83,69.236v-3.09a1.634,1.634,0,0,0,0-.218.764.764,0,0,0-.081-.328.418.418,0,0,0-.28-.152.5.5,0,0,0-.138,0h-.147c-.047,0-.071,0-.071-.052s.047-.066.138-.066h2.036a3.384,3.384,0,0,1,.669.057,3.014,3.014,0,0,1,.475.138.982.982,0,0,1,.285.157,1.866,1.866,0,0,1,.152.128,1.552,1.552,0,0,1,.285.4,1.3,1.3,0,0,1,.1.579,2.084,2.084,0,0,1-.157.816,1.866,1.866,0,0,1-.432.636,2,2,0,0,1-.66.408,2.222,2.222,0,0,1-.826.147h-.18a.147.147,0,0,1-.062,0,.047.047,0,0,1-.028-.047.057.057,0,0,1,.047-.062.717.717,0,0,1,.18,0,1.543,1.543,0,0,0,.574-.1,1.381,1.381,0,0,0,.475-.29,1.353,1.353,0,0,0,.309-.437,1.287,1.287,0,0,0,.114-.541v-.256a1.871,1.871,0,0,0-.062-.328,1.7,1.7,0,0,0-.138-.361,1.368,1.368,0,0,0-.261-.356,1.339,1.339,0,0,0-.342-.256,1.448,1.448,0,0,0-.328-.128,1.31,1.31,0,0,0-.285-.038h-.2a1.375,1.375,0,0,0-.2,0,.541.541,0,0,0-.157.038c-.047,0-.066.071-.066.161v4.548a6.024,6.024,0,0,0,.038.75.8.8,0,0,0,.076.309.285.285,0,0,0,.252.152,1.243,1.243,0,0,0,.2.028h.176c.043,0,.066,0,.066.047s-.043.066-.133.066H82.555c-.09,0-.133,0-.133-.066s0-.047.066-.047h.128a.622.622,0,0,0,.128-.028.223.223,0,0,0,.171-.152,1.186,1.186,0,0,0,.071-.309,6.024,6.024,0,0,0,.038-.75C83,70,83,69.64,83,69.236Z" transform="translate(-82.171 -34.854)" fill="#5d2568"/>
        <path id="Path_68" data-name="Path 68" d="M99.576,67.751v2.568a7.124,7.124,0,0,0,.038.75,1.011,1.011,0,0,0,.076.309.29.29,0,0,0,.256.152,1.242,1.242,0,0,0,.2.028h.176c.043,0,.066,0,.066.047s-.047.066-.138.066h-1.87c-.085,0-.133,0-.133-.066s0-.047.066-.047h.128a.622.622,0,0,0,.128-.028.214.214,0,0,0,.171-.152,1.187,1.187,0,0,0,.071-.309,6.024,6.024,0,0,0,.038-.75v-1.97c0-.033,0-.047-.052-.047H95.251c-.033,0-.052,0-.052.047v1.97a7.126,7.126,0,0,0,.038.75.892.892,0,0,0,.076.309.285.285,0,0,0,.252.152,1.305,1.305,0,0,0,.209.028h.171c.047,0,.071,0,.071.047s-.047.066-.138.066H94.017c-.09,0-.133,0-.133-.066s0-.047.066-.047h.128a.522.522,0,0,0,.123-.028.218.218,0,0,0,.176-.152,1.76,1.76,0,0,0,.071-.309,7.122,7.122,0,0,0,.038-.75V65.928a.764.764,0,0,0-.081-.328.427.427,0,0,0-.28-.152.5.5,0,0,0-.138,0h-.152c-.043,0-.066,0-.066-.052s.047-.066.138-.066h1.752c.09,0,.133,0,.133.066s0,.052-.066.052h-.214a.309.309,0,0,0-.228.147.807.807,0,0,0-.081.332v2c0,.033,0,.047.052.047H98.83c.038,0,.052,0,.052-.047v-2A.831.831,0,0,0,98.8,65.6a.418.418,0,0,0-.28-.152.5.5,0,0,0-.138,0h-.147c-.047,0-.071,0-.071-.052s.047-.066.138-.066h1.766c.09,0,.133,0,.133.066s0,.052-.066.052h-.2a.323.323,0,0,0-.233.147.807.807,0,0,0-.081.332v1.823Z" transform="translate(-88.207 -34.854)" fill="#5d2568"/>
        <path id="Path_69" data-name="Path 69" d="M112.724,67.725v2.568a6.023,6.023,0,0,0,.038.75.8.8,0,0,0,.076.309.285.285,0,0,0,.252.152,1.306,1.306,0,0,0,.209.028h.171c.043,0,.066,0,.066.047s-.043.066-.133.066h-1.866c-.09,0-.133,0-.133-.066s0-.047.066-.047h.123a.507.507,0,0,0,.128-.028.218.218,0,0,0,.176-.152,1.76,1.76,0,0,0,.071-.309c0-.18.033-.432.038-.75s0-.679,0-1.082V65.9q-.028-.413-.285-.475a1.351,1.351,0,0,0-.147-.028h-.119c-.043,0-.066,0-.066-.052s.047-.066.138-.066h1.661c.09,0,.138,0,.138.066s0,.052-.066.052h-.09a.789.789,0,0,0-.123,0,.323.323,0,0,0-.233.147.893.893,0,0,0-.081.332V67.7Z" transform="translate(-97.462 -34.828)" fill="#5d2568"/>
        <path id="Path_70" data-name="Path 70" d="M120.789,67.751v1.5a12.988,12.988,0,0,0,.038,1.372.916.916,0,0,0,.152.56.446.446,0,0,0,.119.085.565.565,0,0,0,.185.062,1,1,0,0,1,.29.033,1.744,1.744,0,0,0,.418,0,4.608,4.608,0,0,0,.6-.033.612.612,0,0,0,.418-.218.859.859,0,0,0,.142-.242,1.149,1.149,0,0,0,.076-.266c0-.071.038-.109.076-.109s.052.043.052.128v.133a2.13,2.13,0,0,1-.028.228l-.043.261a1.8,1.8,0,0,1-.047.223.271.271,0,0,1-.047.119.162.162,0,0,1-.071.066.475.475,0,0,1-.147.033h-3.361c-.09,0-.138,0-.138-.066s.024-.047.066-.047h.128a.561.561,0,0,0,.128-.028.214.214,0,0,0,.171-.152,1.187,1.187,0,0,0,.071-.309,6.024,6.024,0,0,0,.038-.75q0-.477,0-1.082V65.928a.831.831,0,0,0-.085-.328.418.418,0,0,0-.28-.152.5.5,0,0,0-.138,0h-.147c-.047,0-.066,0-.066-.052s.043-.066.133-.066h1.866c.09,0,.133,0,.133.066s0,.052-.066.052H121.3a.883.883,0,0,0-.157,0,.332.332,0,0,0-.247.147.807.807,0,0,0-.081.332v1.823Z" transform="translate(-101.649 -34.854)" fill="#5d2568"/>
        <path id="Path_71" data-name="Path 71" d="M129.315,70.619l1.9-5.222a1.968,1.968,0,0,1,.109-.271.09.09,0,0,1,.076-.057.1.1,0,0,1,.076.052,1.923,1.923,0,0,0,.109.252c.052.128.071.19.157.4s.176.475.294.779.242.641.384,1.006.28.726.418,1.087.266.693.394,1.016.233.589.318.8a2.978,2.978,0,0,0,.214.475,2.376,2.376,0,0,0,.195.275.556.556,0,0,0,.171.142.541.541,0,0,0,.147.062.621.621,0,0,0,.18.043h.157c.057,0,.085,0,.085.047s0,.047-.052.057a.474.474,0,0,1-.119,0h-1.51c-.047,0-.066,0-.066-.047s0-.047.057-.057a.109.109,0,0,0,.066-.071.19.19,0,0,0,0-.157l-.788-2.074a.076.076,0,0,0-.076-.052H130.4a.085.085,0,0,0-.081.066l-.508,1.5a1.67,1.67,0,0,0-.119.565.2.2,0,0,0,.1.185.475.475,0,0,0,.218.062h.081c.057,0,.085,0,.085.047s-.043.066-.128.066h-1.609c-.1,0-.161,0-.161-.066s.028-.047.076-.047h.247a.622.622,0,0,0,.441-.256A2.454,2.454,0,0,0,129.315,70.619Zm1.206-1.866h1.609c.033,0,.047,0,.033-.057l-.8-2.279q-.071-.185-.128,0L130.5,68.7C130.454,68.735,130.464,68.754,130.521,68.754Z" transform="translate(-106.335 -34.718)" fill="#5d2568"/>
        <path id="Path_72" data-name="Path 72" d="M143.823,66.335l.109,4.044a1.93,1.93,0,0,0,.028.432,1.592,1.592,0,0,0,.062.29.346.346,0,0,0,.242.256,1,1,0,0,0,.237.043h.18c.047,0,.071,0,.071.047s-.052.066-.152.066h-1.7c-.09,0-.138,0-.138-.066s0-.047.066-.047h.152a.646.646,0,0,0,.195-.043c.109-.028.176-.119.209-.271a4.875,4.875,0,0,0,.047-.8V65.452a1.591,1.591,0,0,1,.024-.332c0-.062.038-.09.071-.09s.081.033.138.1l.157.171c.033.033.133.138.29.313s.366.4.612.665.527.56.831.892l.949,1.021.646.684.593.65.475.536c.142.157.247.266.313.332l-.095-4.272a1.9,1.9,0,0,0-.071-.579.347.347,0,0,0-.256-.218,2.136,2.136,0,0,0-.242-.038h-.171c-.047,0-.066,0-.066-.062s.052-.057.166-.057h1.614c.1,0,.152,0,.152.057s-.028.062-.09.062h-.081a.79.79,0,0,0-.123,0A.3.3,0,0,0,149,65.5a2.041,2.041,0,0,0-.052.541v5.45a.232.232,0,0,1,0,.076.043.043,0,0,1-.038,0,.161.161,0,0,1-.066,0l-.1-.076c-.043-.043-.1-.095-.171-.166l-.275-.275-.256-.256c-.152-.147-.332-.337-.546-.555l-.693-.722-.707-.755c-.247-.261-.475-.522-.722-.779l-.646-.712-.513-.57A1.266,1.266,0,0,1,143.823,66.335Z" transform="translate(-113.941 -34.697)" fill="#5d2568"/>
        <path id="Path_73" data-name="Path 73" d="M162.275,65.433v4.652a4.12,4.12,0,0,0,.038.75,1.012,1.012,0,0,0,.076.309.294.294,0,0,0,.256.152,1.243,1.243,0,0,0,.2.028h.176c.043,0,.066,0,.066.047s-.047.066-.138.066h-1.861c-.09,0-.138,0-.138-.066s0-.047.066-.047h.128a.622.622,0,0,0,.128-.028.214.214,0,0,0,.171-.152,1.187,1.187,0,0,0,.071-.309,6.026,6.026,0,0,0,.038-.75V65.433H160.31q-.166-.008-.332,0a1.989,1.989,0,0,0-.242.047.475.475,0,0,0-.166.081.442.442,0,0,0-.119.128c-.047.071-.081.128-.1.161a.782.782,0,0,0-.043.1q-.038.085-.085.085c-.028,0-.043-.028-.043-.076a1.6,1.6,0,0,1,.024-.166,1.474,1.474,0,0,1,.062-.285c.024-.1.043-.195.062-.275s.033-.138.038-.152l.038-.1a.053.053,0,0,1,.047-.057.313.313,0,0,1,.123.043.65.65,0,0,0,.247.057c.123,0,.252.024.389.028H164a1.613,1.613,0,0,0,.247-.028l.152-.028h.085c.024,0,.033,0,.038.033a.356.356,0,0,1,0,.071v.926c0,.024,0,.109-.057.109h-.047a.394.394,0,0,1,0-.119v-.09a.394.394,0,0,0-.223-.323,1.176,1.176,0,0,0-.313-.095,2.787,2.787,0,0,0-.5-.047Z" transform="translate(-122.567 -34.639)" fill="#5d2568"/>
        <path id="Path_74" data-name="Path 74" d="M178.855,67.751v2.568a6.026,6.026,0,0,0,.038.75.8.8,0,0,0,.076.309.285.285,0,0,0,.252.152,1.3,1.3,0,0,0,.209.028h.171c.047,0,.066,0,.066.047s-.043.066-.133.066h-1.851c-.09,0-.133,0-.133-.066s0-.047.066-.047h.128a.522.522,0,0,0,.123-.028.218.218,0,0,0,.176-.152,1.76,1.76,0,0,0,.071-.309c0-.18.033-.432.038-.75s0-.679,0-1.082v-.888c0-.033,0-.047-.052-.047h-3.579c-.033,0-.047,0-.047.047v1.97a6.026,6.026,0,0,0,.038.75.8.8,0,0,0,.076.309.285.285,0,0,0,.252.152,1.305,1.305,0,0,0,.209.028h.171c.043,0,.066,0,.066.047s-.043.066-.133.066h-1.866c-.09,0-.138,0-.138-.066s0-.047.071-.047h.123a.508.508,0,0,0,.128-.028.209.209,0,0,0,.171-.152,1.4,1.4,0,0,0,.076-.309c0-.18.033-.432.038-.75V65.928a.7.7,0,0,0-.085-.328.4.4,0,0,0-.28-.152.474.474,0,0,0-.138,0h-.147c-.043,0-.066,0-.066-.052s.043-.066.133-.066h1.766c.09,0,.138,0,.138.066s-.024.052-.066.052h-.09a.788.788,0,0,0-.123,0,.323.323,0,0,0-.233.147.893.893,0,0,0-.081.332v2c0,.033,0,.047.047.047h3.579c.033,0,.052,0,.052-.047v-2a.7.7,0,0,0-.085-.328.4.4,0,0,0-.275-.152.513.513,0,0,0-.142,0h-.147c-.043,0-.066,0-.066-.052s.043-.066.133-.066h1.766c.09,0,.138,0,.138.066s0,.052-.066.052H179.2a.332.332,0,0,0-.233.147.892.892,0,0,0-.081.332v1.823Z" transform="translate(-129.847 -34.854)" fill="#5d2568"/>
        <path id="Path_75" data-name="Path 75" d="M191.2,69.237V65.928a.831.831,0,0,0-.085-.328.418.418,0,0,0-.28-.152.5.5,0,0,0-.138,0h-.147c-.047,0-.071,0-.071-.052s.047-.066.138-.066h1.927a5.089,5.089,0,0,1,.807.062,1.453,1.453,0,0,1,.916.475,1.3,1.3,0,0,1,.19.247,1.744,1.744,0,0,1,.152.328,1.248,1.248,0,0,1,.062.408,2.193,2.193,0,0,1-.228.949,3.365,3.365,0,0,1-.793,1l.949,1.215c.29.366.555.684.8.949a2.046,2.046,0,0,0,.608.475,1.871,1.871,0,0,0,.422.133h.328c.052,0,.076,0,.076.047a.057.057,0,0,1-.043.057.66.66,0,0,1-.161,0h-.6a3.222,3.222,0,0,1-.546-.033.992.992,0,0,1-.356-.123,1.737,1.737,0,0,1-.522-.451c-.171-.209-.375-.475-.617-.793-.09-.114-.18-.237-.271-.361l-.256-.356-.228-.309c-.071-.09-.123-.166-.166-.223a.142.142,0,0,0-.109-.047h-1.035c-.043,0-.062.024-.062.066v1.286a7.122,7.122,0,0,0,.038.75,1.012,1.012,0,0,0,.076.309.29.29,0,0,0,.256.152,1.244,1.244,0,0,0,.2.028h.171c.047,0,.071,0,.071.047s-.047.066-.138.066h-1.818c-.09,0-.138,0-.138-.066s.024-.047.066-.047h.128a.56.56,0,0,0,.128-.028.214.214,0,0,0,.171-.152,1.187,1.187,0,0,0,.071-.309,6.029,6.029,0,0,0,.038-.75C191.2,70,191.2,69.64,191.2,69.237Zm.674-3.508V68.5a.109.109,0,0,0,.062.1,1.059,1.059,0,0,0,.351.1,3.841,3.841,0,0,0,.532.038,1.552,1.552,0,0,0,.323-.033.754.754,0,0,0,.313-.128,1.206,1.206,0,0,0,.366-.475,1.993,1.993,0,0,0,.147-.816,1.818,1.818,0,0,0-.389-1.239,1.329,1.329,0,0,0-1.068-.446h-.347l-.218.033a.1.1,0,0,0-.085.1Z" transform="translate(-139.009 -34.854)" fill="#5d2568"/>
        <path id="Path_76" data-name="Path 76" d="M204,68.323a3.51,3.51,0,0,1,.347-1.467,3.91,3.91,0,0,1,.441-.7,2.905,2.905,0,0,1,.636-.6,3.323,3.323,0,0,1,.845-.4A3.47,3.47,0,0,1,207.323,65a3.8,3.8,0,0,1,1.315.218,3.061,3.061,0,0,1,1.059.646,2.848,2.848,0,0,1,.693.992,3.27,3.27,0,0,1,.256,1.32,3.684,3.684,0,0,1-.242,1.339,3.413,3.413,0,0,1-.707,1.1,3.228,3.228,0,0,1-1.063.745,3.456,3.456,0,0,1-1.386.271,3.323,3.323,0,0,1-1.486-.3,2.915,2.915,0,0,1-1.016-.783,3.133,3.133,0,0,1-.584-1.068A3.831,3.831,0,0,1,204,68.323Zm.8-.237a4.078,4.078,0,0,0,.2,1.334,3.09,3.09,0,0,0,.574,1.021,2.625,2.625,0,0,0,.854.65,2.5,2.5,0,0,0,1.063.228,2.848,2.848,0,0,0,.684-.1,2,2,0,0,0,.764-.418,2.45,2.45,0,0,0,.627-.883,3.674,3.674,0,0,0,.256-1.491,3.864,3.864,0,0,0-.214-1.339,3.1,3.1,0,0,0-.57-.978,2.411,2.411,0,0,0-1.78-.8,2.739,2.739,0,0,0-.983.176,2.051,2.051,0,0,0-.783.522,2.45,2.45,0,0,0-.513.869,3.6,3.6,0,0,0-.2,1.2Z" transform="translate(-146.11 -34.681)" fill="#5d2568"/>
        <path id="Path_77" data-name="Path 77" d="M221.287,69.236V65.928a.7.7,0,0,0-.085-.328.4.4,0,0,0-.275-.152.513.513,0,0,0-.142,0h-.147c-.043,0-.066,0-.066-.052s.047-.066.138-.066h2.032a3.4,3.4,0,0,1,.674.057,2.938,2.938,0,0,1,.475.138.949.949,0,0,1,.29.157,1.864,1.864,0,0,1,.152.128,1.552,1.552,0,0,1,.285.4,1.3,1.3,0,0,1,.138.6,2.084,2.084,0,0,1-.157.816,1.813,1.813,0,0,1-.437.636,1.937,1.937,0,0,1-.655.408,2.26,2.26,0,0,1-.826.147h-.18a.133.133,0,0,1-.062,0,.047.047,0,0,1-.028-.047.057.057,0,0,1,.043-.062.792.792,0,0,1,.185,0,1.561,1.561,0,0,0,.574-.1,1.381,1.381,0,0,0,.475-.29,1.353,1.353,0,0,0,.309-.437,1.286,1.286,0,0,0,.114-.541v-.256a1.485,1.485,0,0,0-.057-.328,1.7,1.7,0,0,0-.138-.361,1.486,1.486,0,0,0-.261-.356,1.338,1.338,0,0,0-.342-.256,1.4,1.4,0,0,0-.332-.128,1.268,1.268,0,0,0-.28-.038h-.2a1.377,1.377,0,0,0-.2,0,.542.542,0,0,0-.157.038c-.047,0-.066.071-.066.161v4.548a4.12,4.12,0,0,0,.038.75,1.011,1.011,0,0,0,.076.309.294.294,0,0,0,.256.152,1.241,1.241,0,0,0,.2.028h.176c.043,0,.066,0,.066.047s-.047.066-.138.066H220.9c-.09,0-.133,0-.133-.066s0-.047.066-.047h.128a.521.521,0,0,0,.123-.028.218.218,0,0,0,.176-.152,1.759,1.759,0,0,0,.071-.309,7.126,7.126,0,0,0,.038-.75A4.876,4.876,0,0,1,221.287,69.236Z" transform="translate(-154.815 -34.854)" fill="#5d2568"/>
        <path id="Path_78" data-name="Path 78" d="M232.815,70.145v-.726a1.8,1.8,0,0,0,0-.294,1.4,1.4,0,0,0-.043-.228,1.052,1.052,0,0,0-.057-.185l-.076-.176-.109-.2c-.062-.109-.142-.242-.237-.4l-.342-.5c-.109-.185-.218-.361-.323-.532l-.3-.475c-.09-.142-.157-.252-.209-.323a3.009,3.009,0,0,0-.309-.394,1.543,1.543,0,0,0-.266-.233.783.783,0,0,0-.2-.1.508.508,0,0,0-.161-.033c-.057,0-.085,0-.085-.062s.038-.057.109-.057h1.576a.18.18,0,0,1,.09,0,.057.057,0,0,1,0,.043.042.042,0,0,1-.033.038l-.09.038a.171.171,0,0,0-.109.152.474.474,0,0,0,.028.157,1.392,1.392,0,0,0,.081.176l.152.266c.076.138.171.294.275.475s.223.38.342.584.237.4.342.589l.285.475.157.266c.028-.057.076-.152.147-.285s.152-.285.247-.475l.3-.527c.1-.19.2-.366.3-.532s.176-.309.252-.432.123-.209.152-.252a.906.906,0,0,0,.114-.242.737.737,0,0,0,.029-.19.385.385,0,0,0-.029-.157.152.152,0,0,0-.1-.081q-.128-.043-.128-.085c0-.033.043-.047.133-.047H236.1c.076,0,.109,0,.109.047s-.033.071-.109.071a.688.688,0,0,0-.176,0,.655.655,0,0,0-.214.095.949.949,0,0,0-.214.166l-.233.261c-.043.057-.114.157-.2.294l-.3.475c-.114.176-.228.366-.347.565l-.337.57-.271.475a1.9,1.9,0,0,0-.152.3,1.424,1.424,0,0,0-.109.432,3.95,3.95,0,0,0,0,.413v1.571a.883.883,0,0,0,.085.309.313.313,0,0,0,.261.152,1.3,1.3,0,0,0,.209.028h.171c.047,0,.066,0,.066.047s-.043.066-.133.066h-1.861c-.09,0-.133,0-.133-.066s0-.047.066-.047h.128a.522.522,0,0,0,.123-.028.242.242,0,0,0,.185-.152.8.8,0,0,0,.076-.309,3.477,3.477,0,0,1,.024-.508A1,1,0,0,0,232.815,70.145Z" transform="translate(-159.821 -34.776)" fill="#5d2568"/>
      </g>
    </g>
  </g>
</svg>
